0推121噓0
1推16噓0
2推7噓0
3推7噓0
4推16噓0
5推7噓0
6推14噓0
7推6噓0
8推7噓0
9推12噓0
10推9噓0
11推2噓0
12推7噓0
13推7噓0
14推9噓0
15推8噓0
16推11噓0
17推10噓0
18推6噓0
19推20噓0
20推16噓0
21推2噓0
22推14噓0
23推1噓0
24推21噓0
25推11噓0
26推10噓0
27推9噓0
28推10噓0
29推8噓0
30推10噓0
31推3噓0
32推36噓0
33推0噓0
34推31噓0
35推2噓0
36推5噓0
37推9噓0
38推14噓0
39推9噓0
40推11噓0
41推15噓0
42推17噓0
43推18噓0
44推10噓0
45推15噓0
46推9噓0
47推17噓0
48推13噓0
49推2噓0
50推7噓0
51推7噓0
52推50噓0
53推19噓0
54推9噓0
55推2噓0
56推1噓0
57推26噓0
58推7噓0
59推3噓0
60推4噓0
61推43噓0
62推17噓0
63推1噓0
64推19噓0
65推7噓0
66推7噓0
67推8噓0
68推8噓0
69推8噓0
70推11噓0
71推11噓0
72推15噓0
73推2噓0
74推15噓0
75推7噓0
76推2噓0
77推0噓0
78推18噓0
79推2噓0
80推11噓0
81推10噓0
82推11噓0
83推8噓0
84推13噓0
85推10噓0
86推15噓0
87推41噓0
88推0噓0
89推4噓0
90推14噓0
91推3噓0
92推13噓0
93推16噓0
94推6噓0
95推2噓0
96推7噓0
97推11噓0
98推10噓0
99推10噓0
100推9噓0
101推12噓0
102推0噓0
103推11噓0
104推15噓0
105推15噓0
106推5噓0
107推25噓0
108推17噓0
109推14噓0
110推9噓0
111推34噓0
112推8噓0
113推5噓0
114推60噓0
115推9噓0
116推1噓0
117推6噓0
118推6噓0
119推2噓0
120推12噓0
121推5噓0
122推13噓0
123推1噓0
124推1噓0
125推1噓0
126推15噓0
127推0噓0
128推16噓0
129推17噓0
130推0噓0
131推12噓0
132推1噓0
133推10噓0
134推13噓0
135推15噓0
136推1噓0
137推3噓0
138推9噓0
139推14噓0
140推4噓0
141推13噓0
142推1噓0
143推9噓0
144推4噓0
145推6噓0
146推8噓0
147推0噓0
148推3噓0
149推9噓0
150推9噓0
151推9噓0
152推12噓0
153推22噓0
154推66噓0
155推10噓0
156推14噓0
157推1噓0
158推1噓0
159推13噓0
160推4噓0
161推6噓0
162推79噓0
163推14噓0
164推12噓0
165推13噓0
166推5噓0
167推1噓0
168推1噓0
169推23噓0
170推44噓0
171推1噓0
172推4噓0
173推4噓0
174推0噓0
175推0噓0
176推2噓0
177推14噓0
178推52噓0
179推0噓0
180推44噓0
181推1噓0
182推0噓0
183推5噓0
184推19噓0
185推22噓0
186推1噓0
187推12噓0
188推3噓0
189推2噓0
190推13噓0
191推13噓0
192推5噓0
193推7噓0
194推11噓0
195推4噓0
196推2噓0
197推0噓0
198推395噓0
199推7噓0
200推1噓0
201推7噓0
202推11噓0
203推0噓0
204推2噓0
205推2噓0
206推13噓0
207推8噓0
208推6噓0
209推0噓0
210推1噓0
211推10噓0
212推16噓0
213推11噓0
214推1噓0
215推15噓0
216推4噓0
217推3噓0
218推6噓0
219推16噓0
220推14噓0
221推62噓0
222推19噓0
223推5噓0
224推0噓0
225推3噓0
226推9噓0
227推4噓0
228推12噓0
229推16噓0
230推11噓0
231推3噓0
232推6噓0
233推38噓0
234推8噓0
235推1噓0
236推20噓0
237推4噓0
238推2噓0
239推3噓0
240推16噓0
241推8噓0
242推2噓0
243推4噓0
244推26噓0
245推9噓0
246推2噓0
247推4噓0
248推17噓0
249推8噓0
250推0噓0
251推8噓0
252推8噓0
253推11噓0
254推19噓0
255推13噓0
256推38噓0
257推0噓0
258推7噓0
259推9噓0
260推5噓0
261推3噓0
262推10噓0
263推4噓0
264推15噓0
265推6噓0
266推3噓0
267推16噓0
268推6噓0
269推8噓0
270推12噓0
271推10噓0
272推19噓0
273推40噓0
274推8噓0
275推3噓0
276推2噓0
277推3噓0
278推22噓0
279推29噓0
280推12噓0
281推33噓0
282推14噓0
283推11噓0
284推12噓0
285推11噓0
286推8噓0
287推14噓0
288推3噓0
289推6噓0
290推17噓0
291推9噓0
292推33噓0
293推8噓0
294推28噓0
295推28噓0
296推52噓0
297推41噓0
298推9噓0
299推7噓0
300推47噓0
301推5噓0
302推11噓0
303推4噓0
304推8噓0
305推8噓0
306推4噓0
307推14噓0
308推13噓0
309推1噓0
310推3噓0
311推4噓0
312推4噓0
313推7噓0
314推4噓0
315推3噓0
316推1噓0
317推2噓0
318推1噓0
319推2噓0
320推9噓0
321推7噓0
322推7噓0
323推12噓0
324推9噓0
325推3噓0
326推4噓0
327推2噓0
328推1噓0
329推1噓0
330推5噓0
331推3噓0
332推2噓0
333推5噓0
334推13噓0
335推11噓0
336推0噓0
337推6噓0
338推4噓0
339推10噓0
340推12噓0
341推15噓0
342推5噓0
343推3噓0
344推2噓0
345推4噓0
346推4噓0
347推15噓0
348推6噓0
349推37噓0
350推0噓0
351推2噓0
352推2噓0
353推1噓0
354推62噓0
355推2噓0
356推4噓0
357推3噓0
358推10噓0
359推4噓0
360推4噓0
361推1噓0
362推31噓0
363推4噓0
364推14噓0
365推130噓0
366推30噓0
367推6噓0
368推2噓0
369推4噓0
370推17噓0
371推9噓0
372推3噓0
373推10噓0
374推10噓0
375推10噓0
376推75噓0
377推4噓0
378推39噓0
379推1噓0
380推6噓0
381推1噓0
382推5噓0
383推4噓0
384推11噓0
385推85噓0
386推25噓0
387推41噓0
388推25噓0
389推251噓2
390推9噓0
391推54噓0
392推16噓0
393推153噓1
394推7噓0
395推12噓0
396推201噓1
397推10噓0
398推4噓0
399推0噓0
400推0噓0
401推0噓0
402推0噓0
403推5噓0
404推2噓0
405推2噓0
406推9噓0
407推3噓0
408推1噓0
409推145噓0
410推36噓0
411推41噓0
412推22噓0
413推24噓0
414推12噓0
415推3噓0
416推148噓0
417推115噓0
418推11噓0
419推0噓0
420推24噓0
421推8噓0
422推113噓0
423推11噓0
424推50噓0
425推6噓0
426推20噓0
427推3噓0
428推2噓0
429推0噓0
430推12噓0
431推19噓0
432推6噓0
433推8噓0
434推38噓0
435推104噓0
436推111噓0
437推11噓0
438推7噓0
439推4噓0
440推8噓0
441推120噓0
442推33噓0
443推56噓0
444推45噓0
445推9噓0
446推152噓0
447推23噓0
448推144噓0
449推9噓0
450推11噓0
451推2噓0
452推3噓0
453推9噓0
454推51噓0
455推145噓0
456推1噓0
457推23噓0
458推26噓0
459推4噓0
460推1噓0
461推40噓0
462推10噓0
463推2噓0
464推144噓0
465推2噓0
466推10噓0
467推26噓0
468推83噓0
469推77噓0
470推8噓0
471推148噓0
472推5噓0
473推33噓0
474推39噓0
475推120噓0
476推0噓0
477推1噓0
478推0噓0
479推0噓0
480推0噓0
481推3噓0
482推1噓0
483推14噓0
484推102噓0
485推0噓0
486推0噓0
487推0噓0
488推0噓0
489推0噓0
490推8噓0
491推8噓0
492推4噓0
493推13噓0
494推60噓0
495推8噓0
496推0噓0
497推0噓0
498推0噓0
499推5噓0
500推0噓0
501推1噓0
502推8噓0
503推151噓0
504推44噓0
505推10噓0
506推5噓0
507推7噓0
508推109噓0
509推228噓0
510推1噓0
511推1噓0
512推1噓0
513推0噓0
514推0噓0
515推25噓0
516推90噓0
517推66噓0
518推14噓0
519推0噓0
520推0噓0
521推1噓0
522推0噓0
523推1噓0
524推3噓0
525推13噓0
526推0噓0
527推0噓0
528推0噓0
529推0噓0
530推40噓0
531推12噓0
532推7噓0
533推30噓0
534推31噓0
535推19噓0
536推13噓0
537推9噓0
538推5噓0
539推27噓0
540推10噓0
541推22噓0
542推22噓0
543推39噓0
544推33噓0
545推1噓0
546推0噓0
547推2噓0
548推0噓0
549推0噓0
550推0噓0
551推1噓0
552推0噓0
553推0噓0
554推28噓0
555推0噓0
556推21噓0
557推16噓0
558推21噓0
559推24噓0
560推13噓0
561推12噓0
562推8噓0
563推17噓0
564推4噓0
565推8噓0
566推15噓0
567推9噓0
568推13噓0
569推7噓0
570推63噓0
571推15噓0
572推33噓0
573推5噓0
574推21噓0
575推14噓0
576推46噓0
577推5噓0
578推142噓0
579推11噓0
580推15噓0
581推15噓0
582推14噓0
583推28噓0
584推32噓0
585推4噓0
586推4噓0
587推3噓0
588推7噓0
589推6噓0
590推14噓0
591推2噓0
592推20噓0
593推11噓0
594推22噓0
595推103噓0
596推6噓0
597推27噓0
598推7噓0
599推19噓0
600推7噓0
601推86噓0
602推6噓0
603推132噓0
604推14噓0
605推22噓0
606推4噓0
607推13噓0
608推25噓0
609推139噓0
610推3噓0
611推3噓0
612推17噓0
613推2噓0
614推7噓0
615推37噓0
616推26噓0
617推8噓0
618推9噓0
619推5噓0
620推20噓0
621推2噓0
622推112噓0
623推120噓0
624推12噓0
625推36噓0
626推8噓0
627推7噓0
628推0噓0
629推145噓0
630推2噓0
631推2噓0
632推2噓0
633推14噓0
634推10噓0
635推7噓0
636推129噓0
637推12噓0
638推10噓0
639推16噓0
640推14噓0
641推22噓0
642推32噓0
643推20噓0
644推14噓0
645推11噓0
646推1噓0
647推19噓0
648推27噓0
649推12噓0
650推8噓0
651推21噓0
652推42噓0
653推19噓0
654推3噓0
655推17噓0
656推7噓1
657推25噓0
658推13噓0
659推59噓0
660推6噓0
661推12噓0
662推3噓0
663推2噓0
664推14噓0
665推7噓0
666推51噓0
667推4噓0
668推18噓0
669推6噓0
670推6噓0
671推24噓0
672推10噓0
673推11噓0
674推1噓0
675推4噓0
676推5噓0
677推8噓0
678推7噓0
679推13噓0
680推5噓0
681推5噓0
682推39噓0
683推0噓0
684推12噓0
685推7噓0
686推14噓0
687推0噓0
688推3噓0
689推8噓0
690推6噓0
691推9噓0
692推51噓0
693推15噓0
694推13噓0
695推10噓0
696推8噓0
697推8噓0
698推6噓0
699推4噓0
700推3噓0
701推41噓0
702推5噓0
703推12噓0
704推0噓0
705推9噓0
706推12噓0
707推2噓0
708推10噓0
709推4噓0
710推3噓0
711推7噓0
712推9噓0
713推10噓0
714推15噓0
715推9噓0
716推64噓0
717推9噓0
718推4噓0
719推87噓0
720推4噓0
721推8噓0
722推21噓0
723推9噓0
724推14噓0
725推1噓0
726推5噓0
727推6噓0
728推8噓0
729推1噓0
730推17噓0
731推9噓0
732推10噓0
733推5噓0
734推7噓0
735推11噓0
736推46噓0
737推11噓0
738推6噓0
739推13噓0
740推10噓0
741推12噓0
742推13噓0
743推0噓0
744推5噓0
745推38噓0
746推5噓0
747推16噓0
748推31噓0
749推16噓0
750推2噓0
751推13噓0
752推2噓0
753推66噓0
754推26噓0
755推5噓0
756推3噓0
757推5噓0
758推11噓0
759推3噓0
760推50噓0
761推27噓0
762推7噓0
763推11噓0
764推1噓0
765推0噓0
766推0噓0
767推1噓0
768推12噓0
769推12噓0
770推5噓0
771推1噓0
772推6噓0
773推5噓0
774推126噓0
775推7噓0
776推10噓0
777推10噓0
778推17噓0
779推0噓0
780推109噓0
781推5噓0
782推18噓0
783推9噓0
784推5噓0
785推3噓0
786推6噓0
787推12噓0
788推1噓0
789推4噓0
790推22噓0
791推9噓0
792推9噓0
793推8噓0
794推7噓0
795推10噓0
796推12噓0
797推8噓0
798推49噓0
799推8噓0
800推13噓0
801推0噓0
802推17噓0
803推4噓0
804推8噓0
805推8噓0
806推14噓0
807推2噓0
808推12噓0
809推38噓0
810推2噓0
811推0噓0
812推4噓0
813推10噓0
814推6噓0
815推1噓0
816推6噓0
817推4噓0
818推5噓0
819推20噓0
820推1噓0
821推4噓0
822推44噓0
823推1噓0
824推13噓0
825推3噓0
826推22噓0
827推4噓0
828推2噓0
829推11噓0
830推7噓0
831推7噓0
832推6噓0
833推8噓0
834推9噓0
835推5噓0
836推4噓0
837推2噓0
838推4噓0
839推14噓0
840推4噓0
841推2噓0
842推14噓0
843推12噓0
844推3噓0
845推3噓0
846推25噓0
847推3噓0
848推1噓0
849推0噓0
850推6噓0
851推5噓0
852推6噓0
853推4噓0
854推1噓0
855推1噓0
856推2噓0
857推9噓0
858推0噓0
859推0噓0
860推4噓0
861推1噓0
862推2噓0
863推1噓0
864推7噓0
865推30噓0
866推2噓0
867推10噓0
868推88噓0
869推61噓0
870推4噓0
871推24噓0
872推5噓1
873推119噓0
874推3噓0
875推154噓1
876推6噓0
877推0噓0
878推1噓0
879推2噓0
880推4噓0
881推2噓0
882推0噓0
883推2噓0
884推4噓0
885推0噓0
886推4噓0
887推6噓0
888推2噓0
889推14噓0
890推4噓0
891推9噓0
892推6噓0
893推6噓0
894推0噓0
895推0噓0
896推5噓0
897推2噓0
898推0噓0
899推5噓0
900推8噓0
901推61噓0
902推2噓0
903推14噓0
904推14噓0
905推2噓0
906推10噓0
907推8噓0
908推73噓0
909推10噓0
910推20噓0
911推3噓0
912推3噓0
913推0噓0
914推5噓0
915推6噓0
916推40噓0
917推7噓0
918推9噓0
919推19噓0
920推11噓0
921推2噓0
922推1噓0
923推40噓0
924推3噓0
925推7噓0
926推4噓0
927推12噓0
928推3噓0
929推8噓0
930推5噓0
931推0噓0
932推12噓0
933推7噓0
934推8噓0
935推17噓0
936推12噓0
937推2噓0
938推1噓1
939推3噓0
940推33噓0
941推7噓0
942推64噓0
943推6噓0
944推8噓0
945推14噓0
946推9噓0
947推10噓0
948推7噓0
949推5噓0
950推18噓0
951推13噓0
952推10噓0
953推8噓0
954推7噓0
955推8噓0
956推5噓0
957推49噓0
958推3噓0
959推23噓0
960推1噓0
961推2噓0
962推6噓0
963推5噓0
964推6噓0
965推37噓0
966推10噓0
967推40噓0
968推9噓0
969推13噓0
970推4噓0
971推3噓0
972推5噓0
973推6噓0
974推6噓0
975推20噓0
976推7噓0
977推9噓0
978推4噓0
979推11噓0
980推70噓0
981推10噓0
982推4噓0
983推8噓0
984推7噓0
985推12噓0
986推6噓0
987推6噓0
988推3噓0
989推6噓0
990推4噓0
991推79噓0
992推8噓0
993推50噓0
994推50噓0
995推50噓0
996推50噓0
997推51噓0
998推50噓0
999推51噓0
1000推100噓0
1001推50噓0
1002推51噓0
1003推50噓0
1004推51噓0
1005推11噓0
1006推52噓0
1007推50噓0
1008推52噓0
1009推50噓0
1010推50噓0
1011推50噓0
1012推51噓0
1013推4噓0
1014推172噓0
1015推50噓0
1016推100噓0
1017推50噓0
1018推2噓0
1019推1噓0
1020推9噓0
1021推101噓0
1022推50噓1
1023推51噓0
1024推35噓0
1025推8噓0
1026推9噓0
1027推51噓0
1028推116噓0
1029推4噓0
1030推52噓0
1031推18噓0
1032推50噓0
1033推50噓0
1034推50噓0
1035推38噓0
1036推21噓0
1037推51噓0
1038推51噓0
1039推50噓0
1040推12噓0
1041推2噓0
1042推4噓0
1043推1噓0
1044推1噓0
1045推156噓0
1046推1噓0
1047推23噓0
1048推1086噓0
1049推18噓0
1050推10噓0
1051推4噓0
1052推1噓0
1053推22噓0
1054推25噓0
1055推12噓0
1056推5噓0
1057推29噓0
1058推4噓0
1059推1噓0
1060推3噓0
1061推3噓0
1062推5噓0
1063推158噓0
1064推10噓0
1065推10噓0
1066推4噓0
1067推45噓0
1068推7噓0
1069推28噓0
1070推37噓0
1071推46噓0
1072推26噓0
1073推5噓0
1074推0噓0
1075推5噓0
1076推22噓0
1077推3噓0
1078推10噓0
1079推17噓0
1080推1噓0
1081推2噓0
1082推186噓0
1083推2噓0
1084推17噓0
1085推115噓0
1086推21噓0
1087推18噓0
1088推3噓0
1089推0噓0
1090推6噓0
1091推28噓0
1092推9噓0
1093推13噓0
1094推3噓0
1095推4噓0
1096推90噓0
1097推78噓0
1098推5噓0
1099推54噓0
1100推24噓0
1101推11噓0
1102推9噓0
1103推12噓0
1104推4噓0
1105推0噓0
1106推32噓0
1107推0噓0
1108推28噓0
1109推3噓0
1110推15噓0
1111推18噓0
1112推5噓0
1113推34噓0
1114推1噓0
1115推28噓0
1116推61噓0
1117推44噓0
1118推24噓0
1119推22噓0
1120推22噓0
1121推4噓0
1122推8噓0
1123推14噓0
1124推39噓0
1125推2噓0
1126推0噓0
1127推29噓0
1128推17噓0
1129推73噓0
1130推50噓0
1131推4噓0
1132推5噓0
1133推14噓0
1134推19噓0
1135推18噓0
1136推11噓0
1137推32噓0
1138推5噓0
1139推23噓0
1140推9噓0
1141推6噓0
1142推6噓0
1143推12噓0
1144推5噓0
1145推8噓0
1146推4噓0
1147推25噓0
1148推4噓0
1149推8噓0
1150推17噓0
1151推12噓0
1152推6噓0
1153推6噓0
1154推11噓0
1155推3噓0
1156推1噓0
1157推8噓0
1158推11噓0
1159推2噓0
1160推4噓0
1161推8噓0
1162推166噓0
1163推42噓0
1164推3噓0
1165推7噓0
1166推8噓0
1167推20噓0
1168推18噓0
1169推10噓0
1170推20噓0
1171推58噓0
1172推6噓0
1173推42噓0
1174推20噓0
1175推116噓3
1176推5噓0
1177推37噓0
1178推12噓0
1179推19噓0
1180推3噓0
1181推206噓0
1182推4噓0
1183推10噓0
1184推8噓0
1185推11噓0
1186推2噓0
1187推2噓0
1188推8噓0
1189推2噓0
1190推0噓0
1191推2噓0
1192推52噓0
1193推29噓0
1194推39噓0
1195推9噓0
1196推21噓0
1197推8噓0
1198推21噓0
1199推14噓0
1200推24噓0
1201推19噓0
1202推18噓0
1203推28噓0
1204推31噓0
1205推34噓0
1206推17噓0
1207推7噓0
1208推0噓0
1209推2噓0
1210推3噓0
1211推0噓0
1212推12噓0
1213推6噓0
1214推8噓0
1215推11噓0
1216推8噓0
1217推7噓0
1218推0噓0
1219推9噓0
1220推75噓0
1221推1噓0
1222推3噓0
1223推4噓0
1224推16噓0
1225推18噓0
1226推2噓0
1227推0噓0
1228推10噓0
1229推19噓0
1230推3噓0
1231推77噓0
1232推20噓0
1233推18噓0
1234推29噓0
1235推54噓0
1236推14噓0
1237推7噓0
1238推0噓0
1239推1噓0
1240推20噓0
1241推95噓0
1242推9噓0
1243推21噓0
1244推15噓0
1245推14噓0
1246推0噓0
1247推1100噓32
1248推4噓0
1249推130噓0
1250推3噓1
1251推3噓0
1252推26噓0
1253推33噓0
1254推24噓0
1255推2噓0
1256推19噓0
1257推7噓0
1258推26噓0
1259推2噓0
1260推117噓0
1261推46噓0
1262推7噓0
1263推183噓0
1264推27噓0
1265推6噓0
1266推8噓0
1267推12噓0
1268推10噓0
1269推5噓0
1270推15噓0
1271推0噓0
1272推12噓0
1273推2噓0
1274推7噓0
1275推88噓0
1276推42噓0
1277推53噓0
1278推41噓0
1279推25噓0
1280推5噓0
1281推11噓0
1282推8噓0
1283推27噓0
1284推10噓0
1285推7噓0
1286推9噓0
1287推4噓0
1288推22噓0
1289推8噓0
1290推9噓0
1291推8噓0
1292推0噓0
1293推25噓0
1294推11噓0
1295推7噓0
1296推0噓0
1297推2噓0
1298推46噓0
1299推10噓0
1300推14噓0
1301推50噓0
1302推75噓0
1303推55噓0
1304推29噓0
1305推8噓0
1306推35噓0
1307推14噓0
1308推31噓0
1309推10噓0
1310推6噓0
1311推3噓0
1312推0噓0
1313推4噓0
1314推3噓0
1315推33噓0
1316推20噓0
1317推2噓0
1318推2噓0
1319推12噓0
1320推0噓0
1321推2噓0
1322推5噓0
1323推2噓0
1324推13噓0
1325推6噓0
1326推17噓0
1327推25噓0
1328推18噓0
1329推3噓0
1330推22噓0
1331推5噓0
1332推84噓0
1333推24噓0
1334推92噓0
1335推1噓0
1336推18噓0
1337推11噓0
1338推21噓0
1339推7噓0
1340推7噓0
1341推5噓0
1342推9噓0
1343推14噓0
1344推0噓0
1345推3噓0
1346推13噓0
1347推104噓0
1348推5噓0
1349推36噓0
1350推12噓0
1351推4噓0
1352推4噓0
1353推10噓0
1354推3噓0
1355推32噓0
1356推11噓3
1357推128噓0
1358推75噓0
1359推53噓0
1360推9噓0
1361推7噓0
1362推172噓0
1363推61噓0
1364推0噓0
1365推5噓0
1366推5噓0
1367推22噓0
1368推13噓0
1369推6噓0
1370推5噓0
1371推65噓0
1372推6噓0
1373推14噓0
1374推24噓0
1375推68噓0
1376推55噓0
1377推14噓0
1378推26噓0
1379推7噓0
1380推244噓0
1381推9噓0
1382推15噓0
1383推14噓0
1384推19噓0
1385推72噓0
1386推13噓0
1387推1噓0
1388推7噓0
1389推24噓0
1390推8噓0
1391推28噓0
1392推14噓0
1393推19噓0
1394推9噓0
1395推15噓0
1396推17噓0
1397推38噓0
1398推7噓0
1399推4噓0
1400推4噓0
1401推10噓0
1402推16噓0
1403推2噓0
1404推5噓0
1405推14噓0
1406推3噓0
1407推3噓0
1408推10噓0
1409推3噓0
1410推8噓0
1411推1噓0
1412推36噓0
1413推28噓0
1414推8噓0
1415推6噓0
1416推4噓0
1417推14噓0
1418推20噓0
1419推12噓0
1420推5噓0
1421推8噓0
1422推20噓0
1423推2噓0
1424推19噓0
1425推0噓0
1426推25噓0
1427推8噓0
1428推6噓0
1429推3噓0
1430推9噓0
1431推52噓0
1432推7噓0
1433推5噓0
1434推4噓0
1435推6噓0
1436推1噓0
1437推7噓0
1438推10噓0
1439推14噓0
1440推8噓0
1441推5噓0
1442推1噓0
1443推8噓0
1444推0噓0
1445推2噓0
1446推5噓0
1447推107噓0
1448推6噓0
1449推1噓0
1450推2噓0
1451推17噓0
1452推7噓0
1453推10噓0
1454推35噓0
1455推5噓0
1456推7噓0
1457推7噓0
1458推5噓0
1459推11噓0
1460推40噓0
1461推83噓0
1462推18噓0
1463推7噓0
1464推11噓0
1465推7噓0
1466推8噓0
1467推1噓0
1468推5噓0
1469推67噓0
1470推7噓0
1471推3噓0
1472推4噓0
1473推3噓0
1474推2噓0
1475推0噓0
1476推8噓0
1477推40噓0
1478推5噓0
1479推26噓0
1480推10噓0
1481推3噓0
1482推4噓0
1483推31噓0
1484推33噓0
1485推4噓0
1486推5噓0
1487推41噓0
1488推9噓0
1489推5噓0
1490推14噓0
1491推47噓0
1492推10噓0
1493推4噓0
1494推7噓0
1495推5噓0
1496推16噓0
1497推6噓0
1498推1噓0
1499推3噓0
1500推1噓0
1501推3噓0
1502推17噓0
1503推6噓0
1504推7噓0
1505推13噓0
1506推46噓0
1507推26噓0
1508推1噓0
1509推10噓0
1510推4噓0
1511推5噓0
1512推36噓0
1513推1噓0
1514推4噓0
1515推4噓0
1516推7噓0
1517推4噓0
1518推10噓0
1519推35噓0
1520推1噓0
1521推40噓0
1522推184噓0
1523推7噓0
1524推8噓0
1525推0噓0
1526推0噓0
1527推0噓0
1528推0噓0
1529推0噓0
1530推0噓0
1531推3噓0
1532推5噓0
1533推3噓0
1534推5噓0
1535推2噓0
1536推3噓0
1537推13噓0
1538推4噓0
1539推8噓0
1540推3噓0
1541推7噓0
1542推17噓0
1543推19噓0
1544推10噓0
1545推2噓0
1546推7噓0
1547推15噓0
1548推4噓1
1549推8噓0
1550推25噓0
1551推2噓0
1552推4噓0
1553推6噓0
1554推23噓0
1555推13噓0
1556推5噓0
1557推1噓0
1558推29噓0
1559推12噓0
1560推8噓0
1561推80噓0
1562推9噓0
1563推4噓0
1564推7噓0
1565推1噓0
1566推2噓0
1567推3噓0
1568推129噓0
1569推38噓0
1570推8噓0
1571推1噓0
1572推31噓0
1573推52噓0
1574推7噓0
1575推0噓0
1576推0噓0
1577推0噓0
1578推9噓0
1579推6噓0
1580推3噓0
1581推4噓0
1582推30噓0
1583推2噓0
1584推3噓0
1585推12噓0
1586推4噓0
1587推5噓0
1588推3噓0
1589推7噓0
1590推2噓0
1591推3噓0
1592推7噓0
1593推3噓0
1594推1噓0
1595推5噓0
1596推3噓0
1597推4噓0
1598推2噓0
1599推14噓0
1600推2噓0
1601推28噓0
1602推22噓0
1603推3噓0
1604推14噓0
1605推5噓0
1606推12噓0
1607推31噓0
1608推4噓0
1609推56噓0
1610推7噓0
1611推5噓0
1612推10噓0
1613推23噓0
1614推16噓0
1615推19噓0
1616推14噓0
1617推6噓0
1618推0噓0
1619推3噓0
1620推9噓0
1621推3噓0
1622推15噓0
1623推103噓0
1624推3噓0
1625推5噓0
1626推4噓0
1627推0噓0
1628推5噓0
1629推16噓0
1630推6噓0
1631推11噓0
1632推5噓0
1633推0噓0
1634推0噓0
1635推19噓0
1636推7噓0
1637推3噓0
1638推6噓0
1639推1噓0
1640推6噓0
1641推4噓0
1642推4噓0
1643推8噓0
1644推3噓0
1645推0噓0
1646推3噓0
1647推6噓0
1648推0噓0
1649推2噓1
1650推7噓0
1651推21噓0
1652推3噓0
1653推2噓0
1654推10噓0
1655推3噓0
1656推5噓0
1657推15噓1
1658推4噓0
1659推9噓0
1660推2噓0
1661推0噓0
1662推12噓0
1663推6噓0
1664推9噓0
1665推5噓0
1666推9噓0
1667推14噓0
1668推12噓0
1669推7噓0
1670推8噓0
1671推2噓0
1672推6噓0
1673推66噓0
1674推7噓0
1675推11噓0
1676推4噓0
1677推0噓0
1678推25噓0
1679推1噓0
1680推11噓0
1681推1噓0
1682推14噓0
1683推63噓0
1684推18噓0
1685推27噓0
1686推11噓0
1687推5噓0
1688推0噓0
1689推22噓0
1690推1噓0
1691推29噓0
1692推0噓0
1693推4噓0
1694推9噓0
1695推54噓0
1696推7噓0
1697推6噓0
1698推0噓0
1699推9噓0
1700推62噓0
1701推4噓0
1702推22噓0
1703推29噓0
1704推7噓0
1705推0噓0
1706推6噓0
1707推122噓0
1708推4噓0
1709推214噓0
1710推24噓0
1711推6噓0
1712推14噓0
1713推127噓0
1714推4噓0
1715推11噓0
1716推53噓0
1717推8噓0
1718推9噓0
1719推50噓0
1720推1噓0
1721推9噓0
1722推0噓0
1723推2噓0
1724推13噓0
1725推6噓0
1726推6噓0
1727推6噓0
1728推11噓0
1729推21噓0
1730推3噓0
1731推3噓0
1732推13噓0
1733推5噓0
1734推11噓0
1735推6噓0
1736推5噓0
1737推5噓0
1738推17噓0
1739推38噓0
1740推25噓0
1741推69噓0
1742推4噓0
1743推8噓0
1744推7噓0
1745推2噓0
1746推10噓0
1747推8噓0
1748推7噓0
1749推11噓0
1750推35噓0
1751推14噓0
1752推7噓0
1753推3噓0
1754推6噓0
1755推104噓0
1756推13噓0
1757推30噓0
1758推30噓0
1759推66噓0
1760推9噓0
1761推66噓0
1762推8噓0
1763推13噓0
1764推8噓0
1765推36噓0
1766推39噓0
1767推9噓0
1768推4噓0
1769推8噓0
1770推18噓0
1771推2噓0
1772推16噓0
1773推1噓0
1774推20噓0
1775推8噓0
1776推39噓0
1777推81噓0
1778推27噓0
1779推6噓0
1780推13噓0
1781推5噓0
1782推9噓0
1783推20噓0
1784推2噓0
1785推27噓0
1786推10噓0
1787推15噓0
1788推23噓0
1789推15噓0
1790推9噓0
1791推15噓0
1792推4噓0
1793推6噓0
1794推12噓0
1795推16噓0
1796推8噓0
1797推1噓0
1798推8噓0
1799推12噓0
