0推0噓0
1推8噓0
2推4噓0
3推12噓0
4推4噓0
5推4噓0
6推2噓0
7推7噓0
8推14噓0
9推2噓0
10推8噓0
11推7噓0
12推1噓0
13推16噓0
14推23噓0
15推11噓0
16推5噓0
17推7噓0
18推3噓0
19推6噓0
20推1噓0
21推9噓0
22推0噓0
23推38噓0
24推1噓0
25推5噓0
26推8噓0
27推7噓0
28推2噓0
29推11噓0
30推10噓0
31推4噓0
32推8噓0
33推0噓0
34推21噓0
35推28噓0
36推20噓0
37推5噓0
38推2噓0
39推11噓0
40推4噓0
41推9噓0
42推2噓0
43推2噓0
44推11噓0
45推1噓0
46推0噓0
47推5噓0
48推22噓0
49推7噓0
50推6噓0
51推0噓0
52推12噓0
53推8噓0
54推5噓0
55推3噓0
56推84噓0
57推14噓0
58推8噓0
59推5噓0
60推0噓0
61推2噓0
62推3噓0
63推16噓0
64推0噓0
65推3噓0
66推7噓0
67推28噓0
68推2噓0
69推2噓0
70推9噓0
71推8噓0
72推15噓0
73推8噓0
74推3噓0
75推9噓0
76推0噓0
77推5噓0
78推11噓0
79推2噓0
80推9噓0
81推8噓0
82推27噓0
83推12噓0
84推2噓0
85推4噓0
86推2噓0
87推2噓0
88推4噓0
89推7噓0
90推4噓0
91推2噓0
92推15噓0
93推2噓0
94推6噓0
95推10噓0
96推1噓0
97推6噓0
98推45噓0
99推3噓0
100推3噓0
101推9噓0
102推1噓0
103推9噓0
104推0噓0
105推8噓0
106推7噓0
107推2噓0
108推7噓0
109推11噓0
110推4噓0
111推8噓0
112推3噓0
113推5噓0
114推2噓0
115推26噓0
116推11噓0
117推5噓0
118推45噓0
119推8噓0
120推66噓0
121推2噓0
122推2噓0
123推1噓0
124推11噓0
125推0噓0
126推2噓0
127推9噓0
128推5噓0
129推1噓0
130推0噓0
131推1噓0
132推14噓0
133推4噓0
134推6噓0
135推0噓0
136推1噓0
137推2噓0
138推4噓0
139推7噓0
140推0噓0
141推3噓0
142推1噓0
143推38噓0
144推3噓0
145推13噓0
146推54噓0
147推4噓0
148推3噓0
149推5噓0
150推23噓0
151推3噓0
152推0噓0
153推12噓0
154推1噓0
155推4噓0
156推0噓0
157推0噓0
158推4噓0
159推9噓0
160推2噓0
161推0噓0
162推7噓0
163推7噓0
164推4噓0
165推4噓0
166推3噓0
167推1噓0
168推24噓0
169推4噓0
170推2噓0
171推10噓0
172推2噓0
173推14噓0
174推90噓0
175推7噓0
176推1噓0
177推3噓0
178推7噓0
179推0噓0
180推43噓0
181推3噓0
182推1噓0
183推1噓0
184推11噓0
185推7噓0
186推1噓0
187推4噓0
188推5噓0
189推13噓0
190推3噓0
191推2噓0
192推0噓0
193推0噓0
194推0噓0
195推5噓0
196推9噓0
197推2噓0
198推16噓0
199推2噓0
200推5噓0
201推1噓0
202推2噓0
203推0噓0
204推5噓0
205推7噓0
206推16噓0
207推5噓0
208推7噓0
209推30噓0
210推3噓0
211推1噓0
212推3噓0
213推18噓0
214推1噓0
215推12噓0
216推51噓0
217推1噓0
218推1噓0
219推7噓0
220推17噓0
221推17噓0
222推7噓0
223推15噓0
224推16噓0
225推11噓0
226推18噓0
227推20噓0
228推4噓0
229推3噓0
230推21噓0
231推4噓0
232推4噓0
233推6噓0
234推5噓0
235推10噓0
236推28噓0
237推2噓0
238推3噓0
239推25噓0
240推7噓0
241推30噓0
242推14噓0
243推4噓0
244推4噓0
245推8噓0
246推1噓0
247推4噓0
248推9噓0
249推5噓0
250推1噓0
251推5噓0
252推9噓0
253推8噓0
254推7噓0
255推10噓0
256推10噓0
257推67噓0
258推7噓0
259推20噓0
260推8噓0
261推0噓0
262推1噓0
263推3噓0
264推2噓0
265推5噓0
266推32噓0
267推10噓0
268推3噓0
269推0噓0
270推11噓0
271推4噓0
272推14噓0
273推8噓0
274推13噓0
275推3噓0
276推8噓0
277推5噓0
278推9噓0
279推14噓0
280推9噓0
281推2噓0
282推2噓0
283推0噓0
284推5噓0
285推1噓0
286推8噓0
287推2噓0
288推11噓0
289推2噓0
290推2噓0
291推9噓0
292推18噓0
293推3噓0
294推2噓0
295推6噓0
296推0噓0
297推8噓0
298推13噓0
299推1噓0
300推10噓0
301推2噓0
302推4噓0
303推2噓0
304推3噓0
305推16噓0
306推1噓0
307推36噓0
308推4噓0
309推9噓0
310推4噓0
311推3噓0
312推18噓0
313推1噓0
314推17噓0
315推1噓0
316推5噓0
317推17噓0
318推4噓0
319推8噓0
320推4噓0
321推4噓0
322推3噓0
323推16噓0
324推7噓0
325推6噓0
326推9噓0
327推0噓0
328推10噓0
329推1噓0
330推9噓0
331推2噓0
332推1噓0
333推8噓0
334推2噓0
335推22噓0
336推8噓0
337推4噓0
338推2噓0
339推7噓0
340推16噓0
341推12噓0
342推5噓0
343推5噓0
344推0噓0
345推10噓0
346推113噓0
347推0噓0
348推4噓0
349推46噓0
350推5噓0
351推3噓0
352推4噓0
353推10噓0
354推3噓0
355推1噓0
356推6噓0
357推25噓0
358推3噓0
359推4噓0
360推3噓0
361推1噓0
362推24噓0
363推13噓0
364推0噓0
365推2噓0
366推0噓0
367推2噓0
368推4噓0
369推4噓0
370推8噓0
371推10噓0
372推2噓0
373推6噓0
374推5噓0
375推11噓0
376推2噓0
377推4噓0
378推0噓0
379推17噓0
380推3噓0
381推7噓0
382推22噓0
383推11噓0
384推5噓0
385推2噓0
386推1噓0
387推6噓0
388推38噓0
389推2噓0
390推5噓0
391推44噓0
392推2噓0
393推4噓0
394推54噓0
395推1噓0
396推5噓0
397推33噓0
398推9噓0
399推4噓0
400推36噓0
401推2噓0
402推6噓0
403推5噓0
404推12噓0
405推0噓0
406推2噓0
407推7噓0
408推0噓0
409推67噓0
410推13噓0
411推63噓0
412推1噓0
413推29噓0
414推14噓0
415推62噓0
416推39噓0
417推0噓0
418推5噓0
419推11噓0
420推12噓0
421推4噓0
422推8噓0
423推3噓0
424推3噓0
425推10噓0
426推9噓0
427推22噓0
428推6噓0
429推6噓0
430推1噓0
431推7噓0
432推4噓0
433推0噓0
434推10噓0
435推27噓0
436推0噓0
437推0噓0
438推16噓0
439推3噓0
440推5噓0
441推7噓0
442推7噓0
443推13噓0
444推2噓0
445推22噓0
446推4噓0
447推2噓0
448推78噓0
449推7噓0
450推49噓0
451推6噓0
452推6噓0
453推3噓0
454推1噓0
455推3噓0
456推12噓0
457推7噓0
458推2噓0
459推21噓0
460推11噓0
461推6噓0
462推31噓0
463推7噓0
464推4噓0
465推33噓0
466推8噓0
467推0噓0
468推14噓0
469推41噓0
470推2噓0
471推2噓0
472推129噓0
473推4噓0
474推11噓0
475推2噓0
476推3噓0
477推4噓0
478推4噓0
479推42噓0
480推34噓0
481推21噓1
482推5噓0
483推6噓0
484推1噓0
485推32噓0
486推14噓0
487推3噓0
488推9噓0
489推2噓0
490推1噓0
491推4噓0
492推37噓0
493推15噓0
494推20噓0
495推3噓0
496推2噓0
497推1噓0
498推1噓0
499推7噓0
500推39噓0
501推7噓0
502推7噓0
503推8噓0
504推3噓0
505推4噓0
506推5噓0
507推14噓0
508推2噓0
509推4噓0
510推2噓0
511推35噓0
512推14噓0
513推5噓0
514推7噓0
515推0噓0
516推6噓0
517推7噓0
518推0噓0
519推23噓0
520推6噓0
521推7噓0
522推1噓0
523推32噓0
524推12噓0
525推3噓0
526推2噓0
527推70噓0
528推6噓0
529推12噓0
530推0噓0
531推12噓0
532推27噓0
533推2噓0
534推5噓0
535推16噓0
536推2噓0
537推31噓0
538推8噓0
539推17噓0
540推3噓0
541推22噓0
542推4噓0
543推5噓0
544推5噓0
545推14噓0
546推3噓0
547推8噓0
548推5噓0
549推4噓0
550推22噓0
551推2噓0
552推27噓0
553推4噓0
554推3噓0
555推5噓0
556推1噓0
557推6噓0
558推5噓0
559推5噓0
560推11噓0
561推4噓0
562推34噓0
563推2噓0
564推2噓0
565推2噓0
566推6噓0
567推49噓0
568推0噓0
569推7噓0
570推59噓0
571推9噓0
572推30噓0
573推4噓0
574推10噓0
575推10噓0
576推2噓0
577推3噓0
578推3噓0
579推3噓0
580推5噓0
581推83噓0
582推9噓0
583推1噓0
584推4噓0
585推5噓0
586推12噓0
587推4噓0
588推2噓0
589推11噓0
590推9噓0
591推1噓0
592推6噓0
593推9噓0
594推9噓0
595推1噓0
596推3噓0
597推7噓0
598推35噓0
599推12噓0
600推1噓0
601推2噓0
602推30噓0
603推6噓0
604推14噓0
605推1噓0
606推13噓0
607推13噓0
608推9噓0
609推4噓0
610推6噓0
611推7噓0
612推8噓0
613推14噓0
614推20噓0
615推4噓0
616推5噓0
617推1噓0
618推20噓0
619推6噓0
620推1噓0
621推5噓0
622推11噓0
623推25噓0
624推11噓0
625推8噓0
626推12噓0
627推8噓0
628推8噓0
629推6噓0
630推3噓0
631推19噓0
632推1噓0
633推0噓0
634推5噓0
635推3噓0
636推4噓0
637推35噓0
638推8噓0
639推13噓0
640推1噓0
641推6噓0
642推0噓0
643推1噓0
644推5噓0
645推5噓0
646推1噓0
647推6噓0
648推6噓0
649推12噓0
650推1噓0
651推0噓0
652推5噓0
653推2噓0
654推0噓0
655推2噓0
656推11噓0
657推20噓0
658推4噓0
659推2噓0
660推29噓0
661推30噓0
662推13噓0
663推1噓0
664推4噓0
665推1噓0
666推6噓0
667推0噓0
668推1噓0
669推6噓0
670推30噓0
671推6噓0
672推1噓0
673推1噓0
674推19噓0
675推9噓0
676推12噓0
677推21噓0
678推7噓0
679推0噓0
680推7噓0
681推3噓0
682推1噓0
683推1噓0
684推1噓0
685推5噓0
686推3噓0
687推104噓0
688推31噓0
689推2噓0
690推6噓0
691推6噓0
692推12噓0
693推42噓0
694推5噓0
695推0噓0
696推4噓0
697推2噓0
698推12噓0
699推2噓0
700推44噓0
701推33噓0
702推1噓0
703推8噓0
704推2噓0
705推7噓0
706推9噓0
707推1噓0
708推7噓0
709推2噓0
710推5噓0
711推4噓0
712推58噓0
713推1噓0
714推1噓0
715推6噓0
716推0噓0
717推2噓0
718推49噓0
719推32噓0
720推8噓0
721推7噓0
722推7噓0
723推81噓0
724推1噓0
725推4噓0
726推3噓0
727推1噓0
728推2噓0
729推7噓0
730推4噓0
731推17噓0
732推0噓0
733推2噓0
734推1噓0
735推1噓0
736推6噓0
737推2噓0
738推10噓0
739推4噓0
740推9噓0
741推6噓0
742推30噓0
743推42噓0
744推10噓0
745推5噓0
746推3噓0
747推2噓0
748推1噓0
749推3噓0
750推4噓0
751推12噓0
752推9噓0
753推1噓0
754推9噓0
755推2噓0
756推8噓0
757推34噓0
758推9噓0
759推1噓0
760推2噓0
761推13噓0
762推20噓0
763推2噓0
764推6噓0
765推9噓0
766推6噓0
767推9噓0
768推0噓0
769推10噓0
770推6噓0
771推14噓0
772推0噓0
773推4噓0
774推1噓0
775推19噓0
776推8噓0
777推23噓0
778推3噓0
779推27噓0
780推31噓0
781推2噓0
782推4噓0
783推2噓0
784推31噓0
785推7噓0
786推3噓0
787推22噓0
788推9噓0
789推15噓0
790推3噓0
791推31噓0
792推9噓0
793推0噓0
794推66噓0
795推28噓0
796推4噓0
797推1噓0
798推15噓0
799推46噓0
800推8噓0
801推6噓0
802推9噓0
803推19噓0
804推6噓0
805推0噓0
806推29噓0
807推58噓0
808推2噓0
809推5噓0
810推5噓0
811推0噓0
812推10噓0
813推34噓0
814推1噓0
815推0噓0
816推6噓0
817推1噓0
818推17噓0
819推40噓0
820推40噓0
821推14噓0
822推34噓0
823推12噓0
824推8噓0
825推1噓0
826推12噓0
827推4噓0
828推12噓0
829推5噓0
830推0噓0
831推0噓0
832推58噓0
833推0噓0
834推1噓0
835推1噓0
836推15噓0
837推14噓0
838推24噓0
839推0噓0
840推6噓0
841推7噓0
842推0噓0
843推6噓0
844推4噓0
845推11噓0
846推25噓0
847推8噓0
848推4噓0
849推40噓0
850推2噓0
851推10噓0
852推4噓0
853推9噓0
854推33噓0
855推6噓0
856推4噓0
857推117噓0
858推3噓0
859推9噓0
860推0噓0
861推1噓0
862推13噓0
863推14噓0
864推6噓0
865推4噓0
866推3噓0
867推15噓0
868推10噓0
869推5噓0
870推16噓0
871推10噓0
872推2噓0
873推1噓0
874推20噓0
875推4噓0
876推8噓0
877推14噓0
878推7噓0
879推4噓0
880推7噓0
881推3噓0
882推3噓0
883推11噓0
884推6噓0
885推7噓0
886推7噓0
887推13噓0
888推8噓0
889推11噓0
890推5噓0
891推2噓0
892推1噓0
893推10噓0
894推1噓0
895推54噓0
896推6噓0
897推13噓0
898推2噓0
899推7噓0
900推10噓0
901推0噓0
902推7噓0
903推10噓0
904推15噓0
905推6噓0
906推57噓0
907推3噓0
908推2噓0
909推2噓0
910推17噓0
911推3噓0
912推7噓0
913推19噓0
914推8噓0
915推0噓0
916推40噓0
917推16噓0
918推5噓0
919推56噓0
920推11噓0
921推6噓0
922推5噓0
923推6噓0
924推4噓0
925推2噓0
926推2噓0
927推2噓0
928推4噓0
929推4噓0
930推17噓0
931推4噓0
932推15噓0
933推9噓0
934推93噓0
935推0噓0
936推34噓0
937推4噓0
938推7噓0
939推8噓0
940推9噓0
941推5噓0
942推1噓0
943推13噓0
944推1噓0
945推21噓0
946推0噓0
947推2噓0
948推27噓0
949推2噓0
950推7噓0
951推5噓0
952推14噓0
953推45噓0
954推33噓0
955推18噓0
956推28噓0
957推1噓0
958推2噓0
959推1噓0
960推4噓0
961推20噓0
962推2噓0
963推2噓0
964推13噓0
965推0噓0
966推6噓0
967推0噓0
968推2噓0
969推39噓0
970推7噓0
971推4噓0
972推2噓0
973推15噓0
974推3噓0
975推21噓0
976推2噓0
977推1噓0
978推16噓0
979推51噓0
980推6噓0
981推8噓0
982推1噓0
983推6噓0
984推19噓0
985推0噓0
986推10噓0
987推24噓0
988推0噓0
989推0噓0
990推19噓0
991推8噓0
992推36噓0
993推17噓0
994推13噓0
995推7噓0
996推1噓0
997推0噓0
998推37噓0
999推8噓0
1000推0噓0
1001推16噓0
1002推1噓0
1003推4噓0
1004推7噓0
1005推6噓0
1006推53噓0
1007推1噓0
1008推43噓0
1009推3噓0
1010推2噓0
1011推11噓0
1012推2噓0
1013推10噓0
1014推27噓0
1015推4噓0
1016推1噓0
1017推3噓0
1018推9噓0
1019推10噓0
1020推4噓0
1021推2噓0
1022推27噓0
1023推12噓0
1024推4噓0
1025推21噓0
1026推6噓0
1027推2噓0
1028推46噓0
1029推5噓0
1030推3噓0
1031推1噓0
1032推7噓0
1033推4噓0
1034推3噓0
1035推4噓0
1036推21噓0
1037推27噓0
1038推0噓0
1039推1噓0
1040推0噓0
1041推39噓0
1042推0噓0
1043推1噓0
1044推7噓0
1045推5噓0
1046推8噓0
1047推8噓0
1048推5噓0
1049推6噓0
1050推0噓0
1051推33噓0
1052推0噓0
1053推4噓0
1054推34噓0
1055推4噓0
1056推1噓0
1057推0噓0
1058推33噓0
1059推7噓0
1060推11噓0
1061推4噓0
1062推5噓0
1063推1噓0
1064推8噓0
1065推6噓0
1066推3噓0
1067推1噓0
1068推7噓0
1069推4噓0
1070推8噓0
1071推14噓0
1072推3噓0
1073推22噓0
1074推5噓0
1075推2噓0
1076推2噓0
1077推3噓0
1078推4噓0
1079推6噓0
1080推18噓0
1081推5噓0
1082推33噓0
1083推45噓0
1084推57噓0
1085推2噓0
1086推14噓0
1087推6噓0
1088推3噓0
1089推14噓0
1090推3噓0
1091推4噓0
1092推2噓0
1093推4噓0
1094推6噓0
1095推14噓0
1096推1噓0
1097推4噓0
1098推3噓0
1099推2噓0
1100推3噓0
1101推2噓0
1102推4噓0
1103推7噓0
1104推0噓0
1105推1噓0
1106推22噓0
1107推33噓0
1108推8噓0
1109推16噓0
1110推5噓0
1111推3噓0
1112推13噓0
1113推2噓0
1114推8噓0
1115推3噓0
1116推6噓0
1117推0噓0
1118推4噓0
1119推4噓0
1120推23噓0
1121推5噓0
1122推0噓0
1123推43噓0
1124推3噓0
1125推13噓0
1126推23噓0
1127推11噓0
1128推0噓0
1129推4噓0
1130推57噓0
1131推2噓0
1132推2噓0
1133推0噓0
1134推3噓0
1135推15噓0
1136推2噓0
1137推5噓0
1138推27噓0
1139推11噓0
1140推5噓0
1141推2噓0
1142推0噓0
1143推85噓0
1144推29噓0
1145推5噓0
1146推4噓0
1147推0噓0
1148推32噓0
1149推1噓0
1150推2噓0
1151推2噓0
1152推3噓0
1153推5噓0
1154推16噓0
1155推3噓0
1156推56噓0
1157推1噓0
1158推2噓0
1159推16噓0
1160推4噓0
1161推6噓0
1162推6噓0
1163推7噓0
1164推2噓0
1165推2噓0
1166推6噓0
1167推3噓0
1168推0噓0
1169推13噓0
1170推6噓0
1171推0噓0
1172推2噓0
1173推10噓0
1174推5噓0
1175推18噓0
1176推7噓0
1177推6噓0
1178推1噓0
1179推4噓0
1180推76噓0
1181推6噓0
1182推3噓0
1183推10噓0
1184推7噓0
1185推4噓0
1186推2噓0
1187推0噓0
1188推11噓0
1189推26噓0
1190推1噓0
1191推3噓0
1192推3噓0
1193推9噓0
1194推7噓0
1195推3噓0
1196推2噓0
1197推0噓0
1198推9噓0
1199推1噓0
1200推3噓0
1201推2噓0
1202推16噓0
1203推36噓0
1204推2噓0
1205推6噓0
1206推18噓0
1207推2噓0
1208推10噓0
1209推16噓0
1210推1噓0
1211推23噓0
1212推7噓0
1213推4噓0
1214推3噓0
1215推3噓0
1216推35噓0
1217推4噓0
1218推2噓0
1219推7噓0
1220推17噓0
1221推7噓0
1222推2噓0
1223推3噓0
1224推5噓0
1225推3噓0
1226推15噓0
1227推10噓0
1228推1噓0
1229推4噓0
1230推5噓0
1231推5噓0
1232推9噓0
1233推71噓0
1234推28噓0
1235推12噓0
1236推7噓0
1237推30噓0
1238推3噓0
1239推11噓0
1240推37噓0
1241推5噓0
1242推12噓0
1243推4噓0
1244推6噓0
1245推10噓0
1246推9噓0
1247推16噓0
1248推4噓0
1249推25噓0
1250推7噓0
1251推0噓0
1252推6噓0
1253推7噓0
1254推2噓0
1255推16噓0
1256推2噓0
1257推7噓0
1258推9噓0
1259推6噓0
1260推5噓0
1261推4噓0
1262推9噓0
1263推1噓0
1264推9噓0
1265推35噓0
1266推8噓0
1267推3噓0
1268推1噓0
1269推0噓0
1270推4噓0
1271推3噓0
1272推1噓0
1273推3噓0
1274推9噓0
1275推12噓0
1276推16噓0
1277推1噓0
1278推0噓0
1279推2噓0
1280推3噓0
1281推6噓0
1282推4噓0
1283推4噓0
1284推16噓0
1285推7噓0
1286推5噓0
1287推0噓0
1288推0噓0
1289推15噓0
1290推15噓0
1291推7噓0
1292推2噓0
1293推10噓0
1294推1噓0
1295推22噓0
1296推16噓0
1297推3噓0
1298推32噓0
1299推2噓0
1300推15噓0
1301推0噓0
1302推1噓0
1303推0噓0
1304推9噓0
1305推7噓0
1306推2噓0
1307推1噓0
1308推4噓0
1309推4噓0
1310推10噓0
1311推1噓0
1312推0噓0
1313推2噓0
1314推6噓0
1315推24噓0
1316推40噓0
1317推0噓0
1318推2噓0
1319推1噓0
1320推2噓0
1321推2噓0
1322推8噓0
1323推53噓0
1324推6噓0
1325推8噓0
1326推6噓0
1327推1噓0
1328推7噓0
1329推6噓0
1330推1噓0
1331推12噓0
1332推2噓0
1333推3噓0
1334推7噓0
1335推19噓0
1336推37噓0
1337推1噓0
1338推1噓0
1339推4噓0
1340推3噓0
1341推9噓0
1342推52噓0
1343推2噓0
1344推2噓0
1345推112噓0
1346推10噓0
1347推8噓0
1348推0噓0
1349推1噓0
1350推24噓0
1351推1噓0
1352推4噓0
1353推13噓0
1354推33噓0
1355推28噓0
1356推30噓0
1357推7噓0
1358推4噓0
1359推9噓0
1360推3噓0
1361推3噓0
1362推4噓0
1363推3噓0
1364推5噓0
1365推13噓0
1366推5噓0
1367推1噓0
1368推1噓0
1369推8噓0
1370推1噓0
1371推39噓0
1372推3噓0
1373推1噓0
1374推10噓0
1375推13噓0
1376推0噓0
1377推4噓0
1378推143噓0
1379推14噓0
1380推8噓0
1381推11噓0
1382推1噓0
1383推4噓0
1384推0噓0
1385推24噓0
1386推4噓0
1387推0噓0
1388推2噓0
1389推5噓0
1390推1噓0
1391推16噓0
1392推4噓0
1393推8噓0
1394推0噓0
1395推5噓0
1396推1噓0
1397推12噓0
1398推9噓0
1399推66噓0
1400推7噓0
1401推4噓0
1402推7噓0
1403推20噓0
1404推30噓0
1405推28噓0
1406推22噓0
1407推6噓0
1408推11噓0
1409推18噓0
1410推22噓0
1411推29噓0
1412推8噓0
1413推2噓0
1414推3噓0
1415推23噓0
1416推2噓0
1417推0噓0
1418推2噓0
1419推2噓0
1420推54噓0
1421推5噓0
1422推65噓0
1423推6噓0
1424推21噓0
1425推7噓0
1426推3噓0
1427推0噓0
1428推0噓0
1429推2噓0
1430推6噓0
1431推4噓0
1432推3噓0
1433推6噓0
1434推0噓0
1435推0噓0
1436推57噓0
1437推1噓0
1438推0噓0
1439推7噓0
1440推9噓0
1441推38噓0
1442推3噓0
1443推6噓0
1444推2噓0
1445推8噓0
1446推6噓0
1447推8噓0
1448推37噓0
1449推33噓0
1450推7噓0
1451推1噓0
1452推2噓0
1453推2噓0
1454推4噓0
1455推11噓0
1456推2噓0
1457推5噓0
1458推9噓0
1459推2噓0
1460推6噓0
1461推1噓0
1462推5噓0
1463推0噓0
1464推9噓0
1465推1噓0
1466推36噓0
1467推4噓0
1468推19噓0
1469推15噓0
1470推2噓0
1471推9噓0
1472推3噓0
1473推0噓0
1474推2噓0
1475推8噓0
1476推22噓0
1477推25噓0
1478推26噓0
1479推3噓0
1480推13噓0
1481推29噓0
1482推10噓0
1483推0噓0
1484推6噓0
1485推24噓0
1486推2噓0
1487推15噓0
1488推6噓0
1489推5噓0
1490推6噓0
1491推4噓0
1492推6噓0
1493推2噓0
1494推4噓0
1495推2噓0
1496推10噓0
1497推6噓0
1498推9噓0
1499推30噓0
1500推1噓0
1501推18噓0
1502推10噓0
1503推3噓0
1504推2噓0
1505推2噓0
1506推7噓0
1507推10噓0
1508推4噓0
1509推55噓0
1510推12噓0
1511推14噓0
1512推9噓0
1513推6噓0
1514推3噓0
1515推4噓0
1516推0噓0
1517推18噓0
1518推20噓0
1519推7噓0
1520推36噓0
1521推5噓0
1522推4噓0
1523推11噓0
1524推20噓0
1525推37噓0
1526推4噓0
1527推5噓0
1528推11噓0
1529推4噓0
1530推26噓0
1531推0噓0
1532推6噓0
1533推5噓0
1534推5噓0
1535推2噓0
1536推1噓0
1537推55噓0
1538推0噓0
1539推2噓0
1540推11噓0
1541推0噓0
1542推0噓0
1543推1噓0
1544推9噓0
1545推10噓0
1546推40噓0
1547推1噓0
1548推7噓0
1549推3噓0
1550推26噓0
1551推4噓0
1552推0噓0
1553推1噓0
1554推8噓0
1555推6噓0
1556推3噓0
1557推13噓0
1558推2噓0
1559推1噓0
1560推27噓0
1561推3噓0
1562推5噓0
1563推10噓0
1564推33噓0
1565推27噓0
1566推28噓0
1567推12噓0
1568推73噓0
1569推4噓0
1570推2噓0
1571推1噓0
1572推11噓0
1573推5噓0
1574推2噓0
1575推2噓0
1576推33噓0
1577推20噓0
1578推4噓0
1579推24噓0
1580推2噓0
1581推33噓0
1582推0噓0
1583推2噓0
1584推2噓0
1585推7噓0
1586推5噓0
1587推8噓0
1588推0噓0
1589推16噓0
1590推1噓0
1591推11噓0
1592推16噓0
1593推11噓0
1594推31噓0
1595推2噓0
1596推2噓0
1597推3噓0
1598推66噓0
1599推2噓0
1600推7噓0
1601推5噓0
1602推1噓0
1603推5噓0
1604推6噓0
1605推7噓0
1606推4噓0
1607推0噓0
1608推3噓0
1609推3噓1
1610推4噓0
1611推4噓0
1612推6噓0
1613推7噓0
1614推1噓0
1615推11噓0
1616推1噓0
1617推8噓0
1618推8噓0
1619推21噓0
1620推4噓0
1621推6噓0
1622推6噓0
1623推5噓0
1624推1噓0
1625推20噓0
1626推1噓0
1627推7噓0
1628推8噓0
1629推5噓0
1630推3噓0
1631推2噓0
1632推4噓0
1633推2噓0
1634推4噓0
1635推10噓0
1636推18噓0
1637推2噓0
1638推4噓0
1639推19噓0
1640推7噓0
1641推5噓0
1642推17噓0
1643推57噓0
1644推39噓0
1645推6噓0
1646推9噓0
1647推6噓0
1648推2噓0
1649推14噓0
1650推2噓0
1651推2噓0
1652推0噓0
1653推51噓0
1654推5噓0
1655推9噓0
1656推5噓0
1657推6噓0
1658推6噓0
1659推3噓0
1660推0噓0
1661推0噓0
1662推20噓0
1663推0噓0
1664推1噓0
1665推3噓0
1666推32噓0
1667推3噓0
1668推1噓0
1669推32噓0
1670推6噓0
1671推5噓0
1672推1噓0
1673推0噓0
1674推53噓0
1675推28噓0
1676推4噓0
1677推4噓0
1678推9噓0
1679推21噓0
1680推9噓0
1681推1噓0
1682推18噓0
1683推7噓0
1684推1噓0
1685推5噓0
1686推25噓0
1687推27噓0
1688推7噓0
1689推42噓0
1690推15噓0
1691推26噓0
1692推30噓0
1693推3噓0
1694推3噓0
1695推1噓0
1696推4噓0
1697推4噓0
1698推6噓0
1699推2噓0
1700推6噓0
1701推13噓0
1702推5噓0
1703推5噓0
1704推0噓0
1705推5噓0
1706推16噓0
1707推9噓0
1708推0噓0
1709推5噓0
1710推12噓0
1711推2噓0
1712推3噓0
1713推4噓0
1714推5噓0
1715推10噓0
1716推7噓0
1717推9噓0
1718推5噓0
1719推7噓0
1720推8噓0
1721推8噓0
1722推9噓0
1723推23噓0
1724推4噓0
1725推6噓0
1726推12噓0
1727推1噓0
1728推7噓0
1729推2噓0
1730推0噓0
1731推86噓0
1732推2噓0
1733推2噓0
1734推1噓0
1735推9噓0
1736推0噓0
1737推5噓0
1738推2噓0
1739推7噓0
1740推5噓0
1741推62噓0
1742推7噓0
1743推2噓0
1744推29噓0
1745推21噓0
1746推1噓0
1747推2噓0
1748推3噓0
1749推31噓0
1750推4噓0
1751推30噓0
1752推11噓0
1753推11噓0
1754推18噓0
1755推19噓0
1756推2噓0
1757推4噓0
1758推4噓0
1759推36噓0
1760推6噓0
1761推10噓0
1762推9噓0
1763推5噓0
1764推4噓0
1765推6噓0
1766推30噓0
1767推2噓0
1768推2噓0
1769推47噓0
1770推34噓0
1771推13噓0
1772推0噓0
1773推7噓0
1774推2噓0
1775推3噓0
1776推8噓0
1777推6噓0
1778推0噓0
1779推3噓0
1780推6噓0
1781推3噓0
1782推5噓0
1783推4噓0
1784推1噓0
1785推1噓0
1786推45噓0
1787推2噓0
1788推10噓0
1789推4噓0
1790推4噓0
1791推2噓0
1792推0噓0
1793推10噓0
1794推2噓0
1795推37噓0
1796推10噓0
1797推8噓0
1798推15噓0
1799推1噓0
