0推0噓0
1推0噓0
2推0噓0
3推0噓0
4推0噓0
5推0噓0
6推0噓0
7推0噓0
8推0噓0
9推0噓0
10推0噓0
11推0噓0
12推0噓0
13推0噓0
14推0噓0
15推0噓0
16推0噓0
17推0噓0
18推0噓0
19推0噓0
20推0噓0
21推0噓0
22推0噓0
23推0噓0
24推0噓0
25推0噓0
26推0噓0
27推0噓0
28推0噓0
29推0噓0
30推0噓0
31推0噓0
32推0噓0
33推0噓0
34推0噓0
35推0噓0
36推0噓0
37推0噓0
38推0噓0
39推0噓0
40推0噓0
41推0噓0
42推0噓0
43推0噓0
44推0噓0
45推0噓0
46推0噓0
47推0噓0
48推0噓0
49推0噓0
50推0噓0
51推0噓0
52推0噓0
53推0噓0
54推0噓0
55推0噓0
56推0噓0
57推0噓0
58推0噓0
59推0噓0
60推0噓0
61推0噓0
62推0噓0
63推0噓0
64推0噓0
65推0噓0
66推0噓0
67推0噓0
68推1噓0
69推0噓0
70推0噓0
71推0噓0
72推0噓0
73推0噓0
74推0噓0
75推0噓0
76推0噓0
77推5噓0
78推0噓0
79推0噓0
80推0噓0
81推0噓0
82推0噓0
83推0噓0
84推0噓0
85推0噓0
86推0噓0
87推0噓0
88推0噓0
89推0噓0
90推0噓0
91推0噓0
92推0噓0
93推0噓0
94推0噓0
95推0噓0
96推0噓0
97推0噓0
98推0噓0
99推0噓0
100推0噓0
101推0噓0
102推0噓0
103推0噓0
104推4噓0
105推0噓0
106推2噓0
107推0噓0
108推2噓0
109推4噓0
110推19噓0
111推6噓0
112推2噓0
113推4噓0
114推1噓0
115推2噓0
116推4噓0
117推2噓0
118推1噓0
119推0噓0
120推2噓0
121推3噓0
122推4噓0
123推3噓0
124推3噓0
125推1噓0
126推0噓0
127推2噓0
128推6噓0
129推1噓0
130推0噓0
131推0噓0
132推0噓0
133推1噓0
134推1噓0
135推0噓0
136推2噓0
137推2噓0
138推3噓0
139推0噓0
140推0噓0
141推0噓0
142推3噓0
143推3噓0
144推4噓0
145推0噓0
146推1噓0
147推0噓0
148推0噓0
149推1噓0
150推3噓0
151推2噓0
152推5噓0
153推1噓0
154推2噓0
155推2噓0
156推3噓0
157推2噓0
158推1噓0
159推8噓0
160推7噓0
161推7噓0
162推2噓0
163推2噓0
164推0噓0
165推1噓0
166推0噓0
167推9噓0
168推0噓0
169推2噓0
170推1噓0
171推27噓4
172推3噓0
173推0噓0
174推0噓0
175推9噓0
176推0噓0
177推2噓0
178推7噓0
179推19噓0
180推4噓1
181推9噓0
182推0噓0
183推9噓0
184推8噓0
185推0噓0
186推5噓0
187推4噓0
188推3噓0
189推1噓0
190推0噓0
191推8噓0
192推0噓0
193推10噓0
194推2噓0
195推3噓0
196推11噓0
197推7噓0
198推1噓0
199推2噓0
200推1噓0
201推7噓0
202推5噓0
203推7噓0
204推3噓0
205推2噓0
206推2噓0
207推2噓0
208推4噓0
209推1噓0
210推5噓0
211推5噓0
212推4噓1
213推0噓0
214推9噓0
215推9噓0
216推7噓0
217推1噓0
218推4噓0
219推0噓0
220推12噓0
221推0噓0
222推0噓0
223推2噓0
224推2噓0
225推0噓0
226推4噓0
227推0噓0
228推3噓0
229推6噓0
230推3噓0
231推1噓0
232推2噓0
233推1噓0
234推15噓0
235推0噓0
236推4噓0
237推3噓0
238推6噓0
239推1噓0
240推0噓0
241推4噓0
242推3噓0
243推0噓0
244推0噓0
245推0噓0
246推1噓0
247推3噓0
248推16噓0
249推6噓0
250推5噓0
251推3噓0
252推8噓0
253推1噓0
254推1噓0
255推0噓0
256推0噓0
257推1噓0
258推15噓0
259推3噓0
260推0噓0
261推1噓0
262推24噓0
263推7噓0
264推16噓0
265推0噓0
266推0噓0
267推0噓0
268推0噓0
269推0噓0
270推0噓0
271推0噓0
272推0噓0
273推0噓0
274推23噓0
275推4噓0
276推9噓0
277推37噓0
278推2噓0
279推2噓0
280推22噓0
281推36噓0
282推17噓0
283推24噓0
284推15噓0
285推5噓0
286推5噓0
287推8噓0
288推1噓0
289推13噓0
290推15噓0
291推1噓0
292推0噓0
293推1噓0
294推2噓0
295推6噓0
296推6噓0
297推3噓0
298推1噓0
299推13噓0
300推12噓0
301推3噓0
302推0噓0
303推1噓0
304推20噓0
305推8噓0
306推9噓0
307推3噓0
308推3噓0
309推1噓0
310推1噓0
311推7噓0
312推0噓0
313推1噓0
314推3噓0
315推9噓0
316推4噓0
317推5噓0
318推0噓0
319推8噓0
320推2噓0
321推8噓0
322推1噓0
323推7噓0
324推15噓0
325推2噓0
326推6噓0
327推2噓0
328推5噓0
329推11噓0
330推1噓0
331推1噓0
332推3噓0
333推8噓0
334推1噓0
335推3噓0
336推8噓0
337推6噓0
338推21噓0
339推8噓0
340推6噓0
341推13噓0
342推8噓0
343推4噓0
344推5噓0
345推11噓0
346推23噓0
347推0噓0
348推1噓0
349推1噓0
350推2噓0
351推3噓0
352推2噓0
353推0噓0
354推25噓0
355推2噓0
356推0噓0
357推0噓0
358推0噓0
359推1噓0
360推1噓0
361推9噓0
362推1噓0
363推3噓0
364推6噓0
365推4噓0
366推1噓0
367推8噓0
368推2噓0
369推16噓0
370推0噓0
371推11噓0
372推8噓0
373推3噓0
374推3噓0
375推7噓0
376推28噓0
377推12噓0
378推11噓0
379推24噓0
380推21噓0
381推2噓0
382推6噓0
383推4噓0
384推0噓0
385推12噓0
386推11噓0
387推4噓0
388推8噓0
389推2噓0
390推1噓0
391推4噓0
392推0噓0
393推11噓0
394推0噓0
395推1噓0
396推3噓0
397推0噓0
398推0噓0
399推1噓0
400推0噓0
401推0噓0
402推0噓0
403推10噓0
404推0噓0
405推2噓0
406推2噓0
407推2噓0
408推4噓0
409推5噓0
410推0噓0
411推0噓0
412推0噓0
413推2噓0
414推1噓0
415推0噓0
416推0噓0
417推0噓0
418推2噓0
419推5噓0
420推0噓0
421推7噓0
422推9噓0
423推0噓0
424推11噓0
425推0噓0
426推13噓1
427推19噓0
428推5噓0
429推2噓0
430推0噓0
431推2噓0
432推0噓0
433推10噓0
434推7噓0
435推6噓0
436推4噓0
437推1噓0
438推8噓0
439推7噓0
440推2噓0
441推4噓0
442推1噓0
443推6噓0
444推12噓0
445推11噓0
446推25噓0
447推3噓0
448推10噓0
449推5噓0
450推23噓0
451推5噓0
452推6噓0
453推4噓0
454推6噓0
455推17噓0
456推3噓0
457推1噓0
458推1噓0
459推2噓0
460推5噓0
461推7噓0
462推10噓0
463推5噓0
464推9噓0
465推2噓0
466推10噓0
467推0噓0
468推0噓0
469推5噓0
470推3噓0
471推6噓0
472推16噓0
473推2噓0
474推2噓0
475推15噓0
476推3噓0
477推12噓0
478推4噓0
479推2噓0
480推8噓0
481推4噓0
482推5噓0
483推8噓0
484推2噓0
485推6噓0
486推10噓0
487推1噓0
488推11噓0
489推5噓0
490推6噓0
491推2噓0
492推4噓0
493推0噓0
494推4噓0
495推6噓0
496推5噓0
497推8噓0
498推0噓0
499推1噓0
500推3噓0
501推2噓0
502推12噓0
503推2噓0
504推69噓0
505推11噓0
506推58噓0
507推3噓0
508推1噓0
509推1噓0
510推0噓0
511推4噓0
512推13噓0
513推9噓0
514推0噓0
515推1噓0
516推5噓0
517推2噓0
518推3噓0
519推2噓0
520推1噓0
521推0噓0
522推5噓0
523推0噓0
524推1噓0
525推1噓0
526推0噓0
527推2噓0
528推0噓0
529推0噓0
530推1噓0
531推0噓0
532推0噓0
533推0噓0
534推4噓0
535推2噓0
536推13噓0
537推12噓0
538推2噓0
539推1噓0
540推4噓0
541推7噓0
542推3噓0
543推2噓0
544推4噓0
545推25噓0
546推7噓0
547推10噓0
548推10噓0
549推15噓0
550推3噓0
551推33噓0
552推28噓0
553推24噓1
554推3噓0
555推18噓0
556推10噓0
557推10噓0
558推24噓0
559推24噓0
560推1噓0
561推114噓0
562推2噓0
563推0噓0
564推3噓0
565推0噓0
566推1噓0
567推19噓0
568推15噓0
569推11噓0
570推5噓0
571推11噓0
572推21噓0
573推26噓0
574推6噓0
575推1噓0
576推0噓0
577推1噓0
578推7噓0
579推12噓0
580推9噓0
581推36噓0
582推36噓0
583推7噓0
584推6噓0
585推11噓0
586推3噓0
587推11噓0
588推16噓0
589推5噓0
590推5噓0
591推38噓0
592推6噓0
593推2噓0
594推1噓0
595推21噓0
596推3噓0
597推10噓0
598推15噓0
599推29噓0
600推8噓0
601推15噓0
602推5噓0
603推4噓0
604推2噓0
605推22噓0
606推34噓0
607推0噓0
608推25噓0
609推17噓0
610推39噓0
611推13噓0
612推23噓0
613推1噓0
614推10噓0
615推13噓0
616推13噓0
617推11噓0
618推33噓0
619推3噓0
620推6噓0
621推5噓0
622推34噓0
623推29噓0
624推5噓0
625推1噓0
626推19噓0
627推19噓0
628推21噓0
629推2噓0
630推7噓0
631推3噓0
632推2噓0
633推1噓0
634推11噓0
635推97噓0
636推4噓0
637推6噓0
638推133噓0
639推8噓0
640推27噓0
641推3噓0
642推6噓0
643推19噓0
644推4噓0
645推0噓0
646推0噓0
647推8噓0
648推1噓0
649推4噓0
650推5噓0
651推4噓0
652推3噓0
653推127噓0
654推22噓0
655推13噓0
656推13噓0
657推94噓0
658推7噓0
659推35噓0
660推11噓0
661推13噓0
662推0噓0
663推4噓0
664推53噓0
665推63噓0
666推13噓0
667推25噓0
668推31噓0
669推6噓0
670推1噓0
671推2噓0
672推39噓0
673推88噓0
674推1噓0
675推23噓0
676推1噓0
677推0噓0
678推14噓0
679推18噓0
680推24噓0
681推2噓0
682推0噓0
683推5噓0
684推6噓0
685推3噓0
686推80噓0
687推10噓0
688推131噓1
689推28噓0
690推2噓0
691推3噓0
692推8噓0
693推4噓0
694推9噓0
695推40噓0
696推20噓0
697推2噓0
698推5噓0
699推1噓0
700推7噓0
701推5噓0
702推4噓0
703推6噓0
704推2噓0
705推18噓0
706推1噓0
707推0噓0
708推315噓0
709推7噓0
710推9噓0
711推4噓0
712推5噓0
713推1噓0
714推61噓0
715推6噓0
716推18噓0
717推137噓0
718推29噓0
719推120噓0
720推197噓0
721推7噓0
722推8噓0
723推12噓0
724推12噓0
725推4噓0
726推37噓0
727推20噓0
728推15噓0
729推3噓0
730推6噓0
731推21噓0
732推0噓0
733推0噓0
734推0噓0
735推0噓0
736推9噓0
737推1噓0
738推5噓0
739推5噓0
740推0噓0
741推10噓0
742推9噓0
743推29噓0
744推51噓0
745推22噓0
746推5噓0
747推21噓0
748推1噓0
749推20噓0
750推3噓0
751推10噓0
752推13噓0
753推1噓0
754推6噓0
755推3噓0
756推0噓0
757推3噓0
758推2噓0
759推6噓0
760推2噓0
761推5噓0
762推22噓0
763推1噓0
764推5噓0
765推104噓0
766推44噓0
767推19噓0
768推15噓0
769推9噓0
770推8噓0
771推15噓0
772推43噓0
773推21噓0
774推19噓0
775推14噓0
776推17噓0
777推0噓0
778推1噓0
779推122噓0
780推0噓0
781推24噓0
782推1噓0
783推22噓0
784推8噓0
785推6噓0
786推2噓0
787推3噓0
788推77噓0
789推2噓0
790推136噓0
791推134噓0
792推12噓0
793推9噓1
794推4噓0
795推0噓0
796推102噓0
797推1噓0
798推26噓0
799推103噓0
800推1噓0
801推20噓0
802推1噓0
803推108噓0
804推100噓0
805推13噓0
806推12噓0
807推15噓0
808推19噓0
809推7噓0
810推110噓0
811推13噓0
812推189噓0
813推149噓0
814推41噓0
815推33噓1
816推163噓0
817推8噓0
818推4噓0
819推147噓0
820推20噓0
821推1噓0
822推111噓0
823推3噓0
824推5噓0
825推7噓0
826推14噓0
827推96噓0
828推29噓0
829推11噓0
830推501噓0
831推28噓0
832推2噓0
833推37噓0
834推52噓0
835推5噓0
836推3噓0
837推6噓0
838推73噓0
839推11噓0
840推16噓0
841推26噓0
842推0噓0
843推7噓0
844推102噓0
845推180噓0
846推7噓0
847推161噓0
848推85噓0
849推23噓0
850推5噓0
851推13噓0
852推95噓0
853推1噓0
854推6噓0
855推9噓0
856推317噓0
857推1噓0
858推11噓0
859推9噓0
860推128噓0
861推103噓0
862推7噓0
863推11噓0
864推14噓0
865推4噓0
866推82噓1
867推25噓0
868推9噓0
869推3噓0
870推5噓0
871推5噓0
872推0噓0
873推1噓0
874推139噓0
875推3噓0
876推21噓0
877推115噓0
878推108噓0
879推5噓0
880推129噓0
881推6噓0
882推161噓0
883推12噓0
884推32噓0
885推17噓0
886推20噓0
887推3噓0
888推6噓0
889推11噓0
890推9噓0
891推3噓0
892推8噓0
893推181噓0
894推8噓0
895推2噓0
896推515噓0
897推345噓0
898推5噓0
899推34噓0
900推17噓0
901推7噓0
902推13噓0
903推9噓0
904推13噓0
905推12噓0
906推10噓0
907推172噓0
908推0噓0
909推10噓0
910推274噓0
911推22噓0
912推5噓0
913推9噓0
914推12噓0
915推24噓0
916推4噓0
917推15噓0
918推14噓0
919推1噓0
920推375噓0
921推7噓0
922推6噓0
923推5噓0
924推21噓0
925推1噓0
926推58噓0
927推182噓3
928推137噓0
929推129噓0
930推111噓0
931推0噓0
932推124噓0
933推118噓0
934推115噓0
935推38噓0
936推6噓0
937推78噓0
938推9噓0
939推80噓1
940推22噓0
941推37噓0
942推26噓0
943推2噓0
944推21噓0
945推3噓0
946推20噓0
947推17噓0
948推16噓0
949推9噓0
950推8噓0
951推8噓0
952推13噓0
953推20噓0
954推82噓0
955推3噓0
956推0噓0
957推1噓0
958推0噓0
959推255噓0
960推129噓0
961推12噓0
962推2噓0
963推24噓0
964推0噓0
965推0噓0
966推11噓0
967推10噓0
968推6噓0
969推1噓0
970推2噓0
971推1噓0
972推21噓0
973推37噓0
974推6噓0
975推9噓0
976推1噓0
977推16噓0
978推17噓0
979推0噓0
980推8噓0
981推19噓0
982推16噓0
983推9噓0
984推9噓0
985推194噓0
986推61噓0
987推11噓0
988推17噓0
989推3噓0
990推2噓0
991推28噓0
992推16噓0
993推3噓0
994推165噓0
995推9噓0
996推4噓0
997推87噓0
998推4噓0
999推4噓0
1000推2噓0
1001推5噓0
1002推4噓0
1003推17噓0
1004推2噓0
1005推30噓0
1006推23噓0
1007推109噓0
1008推106噓0
1009推146噓0
1010推7噓0
1011推8噓0
1012推160噓0
1013推6噓0
1014推131噓0
1015推29噓0
1016推68噓2
1017推0噓0
1018推22噓0
1019推5噓0
1020推3噓0
1021推5噓0
1022推2噓0
1023推8噓0
1024推19噓0
1025推7噓0
1026推8噓0
1027推5噓0
1028推1噓0
1029推5噓0
1030推0噓0
1031推0噓0
1032推0噓0
1033推0噓0
1034推0噓0
1035推49噓0
1036推13噓0
1037推2噓0
1038推13噓0
1039推10噓0
1040推1噓0
1041推8噓4
1042推13噓0
1043推1噓0
1044推6噓0
1045推8噓0
1046推1噓0
1047推7噓0
1048推21噓0
1049推18噓0
1050推1噓0
1051推12噓11
1052推18噓2
1053推3噓0
1054推1噓0
1055推3噓0
1056推0噓0
1057推66噓0
1058推6噓0
1059推0噓0
1060推49噓0
1061推48噓0
1062推28噓0
1063推0噓0
1064推10噓0
1065推2噓0
1066推3噓0
1067推0噓0
1068推0噓0
1069推29噓0
1070推0噓1
1071推24噓0
1072推3噓0
1073推4噓0
1074推2噓0
1075推21噓0
1076推18噓0
1077推1噓0
1078推2噓0
1079推5噓0
1080推17噓0
1081推13噓0
1082推14噓0
1083推27噓0
1084推32噓0
1085推23噓0
1086推18噓0
1087推15噓0
1088推0噓0
1089推13噓0
1090推125噓0
1091推3噓0
1092推44噓0
1093推3噓0
1094推44噓0
1095推27噓0
1096推29噓0
1097推3噓0
1098推9噓0
1099推6噓0
1100推9噓0
1101推2噓0
1102推0噓0
1103推17噓0
1104推15噓0
1105推40噓0
1106推32噓0
1107推2噓0
1108推10噓0
1109推36噓0
1110推21噓0
1111推16噓0
1112推110噓0
1113推23噓0
1114推46噓0
1115推27噓0
1116推66噓0
1117推144噓0
1118推31噓0
1119推150噓1
1120推11噓0
1121推0噓0
1122推7噓0
1123推13噓0
1124推7噓0
1125推1噓0
1126推10噓0
1127推214噓1
1128推21噓0
1129推193噓1
1130推21噓0
1131推113噓1
1132推1噓0
1133推11噓0
1134推262噓0
1135推85噓0
1136推6噓0
1137推11噓0
1138推78噓1
1139推8噓0
1140推3噓0
1141推13噓2
1142推84噓0
1143推23噓0
1144推270噓0
1145推11噓0
1146推16噓0
1147推52噓0
1148推68噓0
1149推19噓0
1150推10噓0
1151推11噓0
1152推4噓0
1153推22噓0
1154推3噓0
1155推1噓0
1156推2噓0
1157推12噓0
1158推5噓0
1159推4噓0
1160推6噓0
1161推17噓0
1162推6噓0
1163推52噓0
1164推44噓0
1165推8噓0
1166推0噓0
1167推12噓0
1168推1噓0
1169推24噓0
1170推16噓0
1171推4噓0
1172推31噓0
1173推15噓0
1174推12噓0
1175推53噓0
1176推121噓0
1177推22噓0
1178推17噓0
1179推0噓0
1180推25噓0
1181推174噓0
1182推83噓0
1183推216噓0
1184推0噓0
1185推26噓0
1186推9噓0
1187推223噓0
1188推7噓0
1189推222噓1
1190推17噓0
1191推138噓0
1192推35噓0
1193推23噓0
1194推165噓0
1195推6噓0
1196推10噓10
1197推196噓0
1198推110噓2
1199推7噓0
1200推27噓0
1201推46噓0
1202推13噓0
1203推22噓0
1204推8噓0
1205推7噓0
1206推24噓0
1207推17噓0
1208推16噓4
1209推10噓0
1210推43噓0
1211推10噓0
1212推24噓1
1213推0噓0
1214推3噓0
1215推21噓0
1216推7噓0
1217推9噓0
1218推25噓0
1219推10噓0
1220推50噓0
1221推13噓0
1222推117噓0
1223推66噓0
1224推41噓0
1225推5噓0
1226推138噓0
1227推133噓0
1228推6噓0
1229推23噓0
1230推244噓0
1231推131噓0
1232推11噓0
1233推124噓0
1234推17噓0
1235推3噓0
1236推106噓0
1237推11噓0
1238推1噓0
1239推8噓0
1240推17噓0
1241推10噓0
1242推19噓0
1243推17噓0
1244推7噓0
1245推26噓0
1246推33噓0
1247推6噓0
1248推8噓0
1249推13噓0
1250推5噓0
1251推134噓0
1252推1噓0
1253推0噓0
1254推32噓0
1255推201噓0
1256推19噓0
1257推43噓0
1258推147噓0
1259推3噓0
1260推110噓0
1261推21噓0
1262推100噓0
1263推6噓0
1264推69噓0
1265推182噓0
1266推0噓0
1267推58噓0
1268推195噓0
1269推7噓0
1270推8噓0
1271推4噓0
1272推64噓0
1273推2噓0
1274推3噓0
1275推58噓0
1276推37噓0
1277推27噓0
1278推0噓0
1279推12噓0
1280推10噓0
1281推21噓0
1282推19噓0
1283推126噓0
1284推49噓0
1285推48噓0
1286推5噓0
1287推253噓0
1288推15噓0
1289推12噓0
1290推17噓0
1291推108噓0
1292推8噓0
1293推85噓0
1294推91噓0
1295推88噓0
1296推20噓0
1297推41噓0
1298推8噓0
1299推0噓0
1300推1噓0
1301推9噓0
1302推7噓0
1303推94噓0
1304推0噓0
1305推0噓0
1306推12噓0
1307推13噓0
1308推10噓0
1309推504噓14
1310推15噓0
1311推9噓0
1312推358噓0
1313推25噓0
1314推7噓0
1315推3噓0
1316推9噓0
1317推12噓0
1318推8噓0
1319推8噓0
1320推3噓0
1321推5噓0
1322推24噓0
1323推12噓0
1324推23噓0
1325推4噓0
1326推6噓0
1327推10噓0
1328推2噓0
1329推6噓0
1330推10噓0
1331推2噓0
1332推6噓0
1333推29噓0
1334推20噓0
1335推0噓0
1336推86噓0
1337推186噓0
1338推268噓4
1339推137噓0
1340推0噓0
1341推39噓0
1342推0噓0
1343推16噓0
1344推20噓0
1345推14噓0
1346推38噓0
1347推1噓0
1348推29噓0
1349推18噓0
1350推0噓1
1351推2噓4
1352推0噓0
1353推10噓0
1354推10噓0
1355推3噓0
1356推30噓0
1357推9噓0
1358推25噓0
1359推12噓0
1360推19噓0
1361推34噓0
1362推11噓0
1363推37噓0
1364推14噓0
1365推7噓0
1366推6噓0
1367推4噓0
1368推16噓0
1369推7噓0
1370推12噓0
1371推266噓0
1372推235噓0
1373推9噓0
1374推36噓0
1375推0噓0
1376推18噓0
1377推17噓0
1378推13噓0
1379推12噓0
1380推12噓0
1381推322噓0
1382推198噓0
1383推14噓3
1384推180噓0
1385推4噓0
1386推75噓0
1387推23噓0
1388推24噓3
1389推8噓0
1390推5噓0
1391推0噓0
1392推0噓0
1393推4噓0
1394推26噓0
1395推17噓0
1396推7噓0
1397推61噓1
1398推26噓0
1399推24噓0
1400推214噓0
1401推41噓0
1402推7噓0
1403推521噓0
1404推14噓0
1405推9噓0
1406推17噓0
1407推67噓0
1408推60噓0
1409推18噓0
1410推6噓0
1411推42噓0
1412推22噓0
1413推6噓0
1414推19噓0
1415推35噓0
1416推1噓0
1417推39噓0
1418推4噓0
1419推26噓0
1420推36噓0
1421推8噓0
1422推149噓0
1423推141噓0
1424推130噓0
1425推10噓0
1426推63噓0
1427推3噓0
1428推179噓0
1429推309噓0
1430推9噓1
1431推17噓0
1432推13噓0
1433推24噓0
1434推12噓0
1435推7噓0
1436推14噓0
1437推19噓0
1438推13噓0
1439推0噓0
1440推1噓0
1441推2噓0
1442推4噓0
1443推11噓0
1444推22噓0
1445推5噓0
1446推16噓0
1447推3噓0
1448推4噓0
1449推151噓0
1450推12噓0
1451推126噓0
1452推36噓1
1453推0噓0
1454推33噓0
1455推13噓0
1456推1噓0
1457推73噓0
1458推5噓0
1459推19噓0
1460推0噓0
1461推4噓0
1462推5噓0
1463推3噓0
1464推6噓0
1465推11噓0
1466推21噓0
1467推2噓0
1468推175噓0
1469推119噓0
1470推6噓0
1471推1噓0
1472推207噓0
1473推6噓0
1474推5噓0
1475推150噓0
1476推11噓0
1477推265噓0
1478推23噓0
1479推132噓0
1480推169噓2
1481推227噓1
1482推15噓0
1483推253噓1
1484推13噓0
1485推23噓0
1486推43噓0
1487推8噓0
1488推39噓0
1489推58噓0
1490推8噓0
1491推15噓0
1492推36噓0
1493推74噓0
1494推45噓0
1495推20噓0
1496推175噓3
1497推13噓0
1498推0噓0
1499推6噓0
1500推14噓34
1501推25噓0
1502推16噓0
1503推316噓13
1504推231噓3
1505推3噓0
1506推64噓1
1507推16噓0
1508推11噓0
1509推60噓0
1510推18噓0
1511推7噓0
1512推11噓0
1513推21噓0
1514推143噓0
1515推0噓0
1516推41噓0
1517推32噓0
1518推14噓0
1519推6噓1
1520推386噓1
1521推5噓0
1522推208噓1
1523推1噓0
1524推0噓0
1525推42噓0
1526推7噓0
1527推71噓1
1528推48噓0
1529推16噓1
1530推8噓0
1531推40噓4
1532推4噓0
1533推33噓0
1534推28噓0
1535推13噓0
1536推40噓0
1537推37噓0
1538推37噓1
1539推8噓0
1540推26噓0
1541推25噓1
1542推50噓0
1543推6噓0
1544推4噓0
1545推21噓0
1546推32噓0
1547推22噓0
1548推12噓0
1549推10噓0
1550推4噓0
1551推5噓0
1552推11噓1
1553推0噓0
1554推21噓0
1555推38噓46
1556推13噓0
1557推10噓0
1558推12噓30
1559推8噓0
1560推1噓0
1561推4噓1
1562推3噓0
1563推60噓2
1564推2噓0
1565推10噓0
1566推2噓0
1567推4噓0
1568推25噓0
1569推12噓1
1570推130噓2
1571推11噓0
1572推43噓0
1573推13噓0
1574推5噓0
1575推14噓0
1576推12噓0
1577推5噓0
1578推2噓0
1579推13噓0
1580推12噓0
1581推10噓0
1582推9噓0
1583推12噓0
1584推1噓0
1585推2噓0
1586推6噓0
1587推49噓0
1588推10噓0
1589推28噓0
1590推4噓0
1591推1噓0
1592推1噓0
1593推8噓0
1594推27噓0
1595推9噓0
1596推1噓0
1597推11噓0
1598推17噓0
1599推12噓0
1600推8噓0
1601推8噓0
1602推6噓0
1603推18噓0
1604推8噓0
1605推0噓0
1606推4噓0
1607推9噓0
1608推7噓0
1609推7噓0
1610推6噓0
1611推0噓0
1612推8噓0
1613推0噓0
1614推20噓0
1615推9噓0
1616推11噓0
1617推3噓0
1618推4噓0
1619推6噓0
1620推4噓0
1621推4噓0
1622推15噓0
1623推10噓0
1624推9噓0
1625推3噓0
1626推12噓0
1627推10噓0
1628推4噓0
1629推9噓0
1630推6噓0
1631推0噓0
1632推21噓0
1633推19噓0
1634推6噓0
1635推8噓0
1636推7噓0
1637推3噓0
1638推4噓0
1639推0噓0
1640推1噓0
1641推5噓0
1642推4噓0
1643推2噓0
1644推9噓0
1645推34噓0
1646推7噓0
1647推6噓0
1648推24噓0
1649推20噓0
1650推101噓1
1651推5噓0
1652推11噓0
1653推13噓0
1654推0噓0
1655推4噓0
1656推1噓0
1657推38噓0
1658推11噓0
1659推1噓0
1660推7噓0
1661推2噓0
1662推21噓0
1663推10噓0
1664推15噓0
1665推1噓0
1666推13噓0
1667推13噓0
1668推0噓0
1669推7噓0
1670推19噓0
1671推0噓0
1672推4噓0
1673推10噓0
1674推4噓0
1675推0噓0
1676推2噓0
1677推5噓0
1678推6噓0
1679推2噓0
1680推0噓0
1681推0噓0
1682推4噓0
1683推14噓0
1684推7噓0
1685推3噓0
1686推6噓0
1687推12噓0
1688推8噓0
1689推3噓0
1690推18噓0
1691推4噓0
1692推0噓0
1693推10噓0
1694推6噓0
1695推38噓0
1696推6噓0
1697推1噓0
1698推15噓1
1699推4噓0
1700推0噓0
1701推10噓0
1702推3噓0
1703推2噓0
1704推7噓0
1705推17噓0
1706推1噓0
1707推1噓0
1708推0噓0
1709推0噓0
1710推0噓0
1711推2噓0
1712推0噓0
1713推6噓0
1714推5噓0
1715推6噓0
1716推2噓0
1717推0噓0
1718推13噓0
1719推21噓0
1720推4噓0
1721推2噓0
1722推4噓0
1723推2噓0
1724推3噓0
1725推2噓0
1726推6噓0
1727推1噓0
1728推8噓0
1729推5噓0
1730推3噓0
1731推0噓0
1732推21噓0
1733推2噓0
1734推1噓0
1735推5噓0
1736推7噓0
1737推11噓0
1738推11噓0
1739推4噓0
1740推4噓0
1741推1噓0
1742推1噓0
1743推0噓0
1744推7噓0
1745推3噓0
1746推6噓0
1747推16噓0
1748推0噓0
1749推1噓0
1750推4噓0
1751推5噓0
1752推14噓0
1753推4噓0
1754推4噓0
1755推19噓0
1756推2噓0
1757推0噓0
1758推11噓0
1759推2噓0
1760推4噓0
1761推7噓0
1762推5噓0
1763推3噓0
1764推68噓0
1765推5噓0
1766推5噓0
1767推15噓0
1768推14噓0
1769推26噓0
1770推0噓0
1771推3噓0
1772推3噓0
1773推7噓0
1774推6噓0
1775推6噓0
1776推7噓0
1777推3噓0
1778推5噓0
1779推13噓0
1780推1噓0
1781推7噓0
1782推5噓0
1783推1噓0
1784推6噓0
1785推9噓0
1786推8噓0
1787推84噓0
1788推74噓0
1789推7噓0
1790推0噓0
1791推20噓0
1792推17噓0
1793推9噓0
1794推1噓0
1795推0噓0
1796推6噓0
1797推7噓0
1798推3噓0
1799推4噓0
