0推3噓0
1推23噓2
2推15噓14
3推2噓0
4推0噓0
5推9噓0
6推3噓1
7推26噓0
8推5噓0
9推7噓0
10推4噓3
11推38噓0
12推3噓0
13推5噓0
14推33噓3
15推6噓0
16推9噓4
17推2噓0
18推9噓0
19推15噓0
20推4噓1
21推4噓0
22推6噓0
23推2噓0
24推0噓0
25推3噓1
26推8噓0
27推3噓0
28推30噓0
29推5噓0
30推6噓11
31推0噓0
32推17噓0
33推14噓0
34推19噓0
35推10噓0
36推5噓0
37推12噓0
38推4噓2
39推6噓0
40推10噓0
41推11噓0
42推10噓0
43推10噓0
44推1噓0
45推16噓0
46推6噓0
47推3噓0
48推44噓0
49推3噓0
50推12噓0
51推19噓0
52推26噓0
53推65噓0
54推2噓0
55推9噓0
56推2噓3
57推0噓0
58推5噓0
59推14噓0
60推5噓0
61推1噓0
62推43噓0
63推5噓1
64推17噓51
65推3噓0
66推1噓0
67推8噓5
68推2噓0
69推2噓0
70推4噓9
71推29噓0
72推6噓2
73推4噓0
74推53噓0
75推23噓0
76推7噓0
77推8噓0
78推52噓0
79推13噓1
80推9噓1
81推2噓3
82推3噓0
83推19噓2
84推0噓0
85推14噓0
86推11噓0
87推11噓1
88推25噓0
89推5噓2
90推22噓0
91推18噓0
92推20噓1
93推8噓0
94推3噓1
95推46噓1
96推10噓41
97推0噓0
98推8噓0
99推11噓0
100推16噓28
101推5噓0
102推10噓4
103推5噓1
104推12噓0
105推3噓1
106推6噓0
107推8噓0
108推11噓0
109推17噓0
110推20噓0
111推12噓1
112推20噓6
113推4噓0
114推7噓2
115推2噓0
116推27噓0
117推8噓0
118推26噓1
119推13噓1
120推2噓0
121推3噓0
122推12噓0
123推1噓0
124推8噓0
125推11噓0
126推3噓0
127推5噓1
128推1噓7
129推10噓0
130推2噓0
131推9噓0
132推11噓0
133推15噓1
134推2噓0
135推8噓0
136推4噓0
137推3噓0
138推9噓0
139推9噓0
140推0噓0
141推3噓0
142推21噓1
143推4噓0
144推7噓0
145推6噓0
146推12噓2
147推3噓0
148推11噓1
149推7噓0
150推56噓1
151推2噓0
152推3噓1
153推6噓0
154推14噓0
155推7噓0
156推14噓0
157推10噓0
158推1噓1
159推19噓0
160推12噓0
161推11噓1
162推17噓0
163推12噓0
164推2噓0
165推29噓0
166推14噓0
167推11噓0
168推43噓0
169推8噓0
170推47噓18
171推17噓15
172推10噓0
173推18噓2
174推7噓0
175推2噓0
176推0噓0
177推4噓0
178推20噓0
179推3噓0
180推24噓6
181推1噓0
182推3噓0
183推5噓0
184推1噓0
185推52噓0
186推26噓0
187推14噓0
188推38噓0
189推11噓0
190推1噓0
191推9噓0
192推13噓0
193推6噓0
194推2噓0
195推0噓0
196推0噓0
197推6噓0
198推36噓3
199推1噓0
200推8噓3
201推0噓0
202推6噓1
203推7噓0
204推113噓17
205推7噓7
206推251噓11
207推77噓4
208推7噓0
209推0噓0
210推4噓0
211推9噓0
212推4噓1
213推37噓0
214推9噓0
215推66噓0
216推16噓0
217推1噓0
218推9噓0
219推1噓0
220推3噓0
221推1噓1
222推31噓30
223推12噓7
224推5噓0
225推61噓0
226推8噓0
227推11噓0
228推32噓4
229推10噓0
230推7噓0
231推6噓0
232推167噓8
233推16噓0
234推6噓0
235推2噓1
236推85噓22
237推13噓2
238推2噓0
239推151噓69
240推16噓0
241推62噓3
242推37噓0
243推5噓0
244推24噓68
245推0噓0
246推8噓0
247推9噓0
248推7噓32
249推10噓0
250推96噓2
251推15噓2
252推28噓0
253推53噓1
254推5噓0
255推14噓0
256推7噓7
257推13噓0
258推3噓2
259推8噓0
260推17噓0
261推50噓0
262推6噓0
263推7噓0
264推8噓0
265推26噓1
266推3噓0
267推35噓0
268推1噓0
269推17噓0
270推75噓0
271推4噓0
272推10噓0
273推17噓0
274推2噓0
275推8噓0
276推0噓0
277推17噓6
278推6噓0
279推1噓0
280推2噓0
281推0噓1
282推1噓0
283推62噓0
284推6噓0
285推10噓0
286推30噓0
287推7噓0
288推0噓0
289推1噓1
290推8噓1
291推21噓0
292推13噓0
293推36噓2
294推7噓1
295推5噓0
296推3噓1
297推3噓0
298推2噓0
299推18噓0
300推4噓0
301推2噓0
302推51噓0
303推14噓1
304推13噓1
305推12噓1
306推6噓0
307推3噓0
308推0噓0
309推15噓1
310推24噓0
311推1噓0
312推2噓0
313推1噓0
314推0噓0
315推49噓1
316推34噓0
317推6噓0
318推9噓0
319推10噓0
320推2噓0
321推2噓0
322推5噓0
323推8噓0
324推0噓0
325推13噓0
326推7噓0
327推10噓0
328推3噓0
329推4噓2
330推1噓0
331推3噓0
332推13噓0
333推8噓0
334推6噓0
335推15噓1
336推3噓0
337推20噓0
338推10噓0
339推11噓0
340推0噓0
341推16噓0
342推12噓0
343推4噓0
344推10噓5
345推19噓0
346推3噓0
347推26噓0
348推3噓0
349推4噓0
350推3噓0
351推2噓0
352推85噓5
353推1噓0
354推11噓0
355推2噓1
356推2噓0
357推4噓0
358推14噓1
359推8噓0
360推1噓0
361推4噓0
362推0噓0
363推5噓0
364推0噓0
365推4噓0
366推14噓1
367推13噓0
368推15噓0
369推3噓0
370推0噓0
371推8噓0
372推6噓0
373推4噓0
374推23噓0
375推1噓0
376推25噓21
377推0噓0
378推80噓5
379推6噓0
380推68噓0
381推30噓0
382推9噓0
383推10噓0
384推6噓0
385推1噓0
386推30噓0
387推4噓0
388推16噓0
389推2噓0
390推9噓2
391推1噓0
392推48噓0
393推0噓0
394推40噓8
395推2噓0
396推4噓2
397推10噓0
398推21噓1
399推24噓0
400推21噓0
401推2噓0
402推13噓27
403推15噓3
404推15噓25
405推30噓0
406推3噓0
407推28噓7
408推6噓0
409推26噓0
410推0噓1
411推29噓1
412推0噓0
413推28噓3
414推0噓0
415推4噓0
416推12噓45
417推55噓0
418推15噓0
419推92噓1
420推28噓1
421推33噓10
422推1噓2
423推7噓0
424推13噓0
425推14噓0
426推16噓0
427推6噓1
428推30噓3
429推59噓2
430推2噓0
431推5噓6
432推101噓0
433推78噓7
434推16噓5
435推2噓0
436推2噓0
437推20噓1
438推5噓0
439推150噓1
440推21噓0
441推75噓0
442推5噓0
443推0噓0
444推3噓10
445推125噓0
446推11噓0
447推6噓0
448推8噓5
449推29噓0
450推0噓0
451推5噓0
452推3噓1
453推4噓3
454推2噓0
455推8噓8
456推2噓0
457推1噓0
458推10噓0
459推8噓0
460推62噓0
461推5噓2
462推6噓0
463推11噓0
464推8噓3
465推37噓1
466推13噓19
467推17噓23
468推6噓0
469推16噓6
470推8噓0
471推6噓0
472推7噓0
473推82噓1
474推16噓0
475推47噓0
476推47噓0
477推10噓1
478推16噓0
479推9噓0
480推27噓0
481推4噓0
482推0噓1
483推54噓0
484推5噓0
485推9噓0
486推150噓3
487推12噓2
488推2噓0
489推129噓2
490推1噓0
491推13噓0
492推2噓2
493推22噓1
494推18噓1
495推4噓0
496推15噓0
497推4噓0
498推63噓1
499推206噓8
500推7噓1
501推2噓0
502推6噓1
503推20噓0
504推37噓0
505推2噓0
506推6噓0
507推14噓0
508推17噓0
509推1噓0
510推15噓0
511推4噓1
512推2噓0
513推3噓0
514推106噓6
515推4噓0
516推16噓2
517推1噓0
518推38噓0
519推5噓2
520推14噓6
521推3噓0
522推1噓0
523推11噓48
524推26噓0
525推18噓0
526推2噓0
527推6噓0
528推73噓0
529推18噓1
530推3噓0
531推12噓0
532推12噓0
533推6噓0
534推1噓0
535推20噓0
536推17噓0
537推4噓0
538推5噓0
539推8噓0
540推4噓0
541推2噓0
542推26噓0
543推177噓10
544推6噓0
545推4噓0
546推8噓0
547推3噓0
548推13噓0
549推5噓8
550推14噓0
551推3噓7
552推32噓1
553推14噓0
554推27噓0
555推13噓0
556推1噓0
557推3噓0
558推4噓0
559推2噓0
560推6噓0
561推10噓0
562推15噓0
563推30噓13
564推10噓0
565推1噓0
566推3噓2
567推7噓0
568推3噓0
569推67噓1
570推0噓0
571推1噓0
572推5噓0
573推4噓0
574推5噓0
575推6噓1
576推4噓0
577推306噓10
578推188噓16
579推11噓0
580推15噓1
581推10噓1
582推0噓0
583推8噓0
584推16噓1
585推3噓11
586推3噓0
587推9噓0
588推14噓0
589推1噓0
590推12噓45
591推2噓0
592推203噓0
593推74噓1
594推0噓3
595推4噓0
596推6噓0
597推1噓0
598推17噓0
599推6噓0
600推4噓0
601推4噓0
602推2噓0
603推4噓0
604推2噓0
605推2噓0
606推1噓0
607推6噓2
608推4噓0
609推20噓0
610推4噓0
611推1噓0
612推1噓0
613推1噓0
614推5噓0
615推0噓0
616推3噓0
617推2噓0
618推2噓0
619推11噓0
620推226噓7
621推0噓0
622推7噓0
623推0噓0
624推1噓0
625推5噓0
626推2噓2
627推4噓0
628推2噓0
629推7噓0
630推23噓0
631推0噓0
632推4噓0
633推1噓0
634推8噓0
635推9噓0
636推4噓0
637推9噓0
638推1噓0
639推1噓0
640推32噓2
641推17噓0
642推4噓0
643推35噓0
644推1噓0
645推4噓0
646推0噓0
647推3噓0
648推2噓0
649推5噓0
650推10噓0
651推2噓20
652推4噓0
653推3噓0
654推7噓0
655推37噓0
656推0噓0
657推2噓0
658推4噓0
659推3噓0
660推4噓0
661推2噓0
662推6噓0
663推1噓0
664推3噓0
665推2噓1
666推0噓0
667推2噓0
668推3噓0
669推1噓0
670推1噓0
671推6噓2
672推0噓0
673推21噓0
674推15噓0
675推10噓0
676推4噓0
677推18噓2
678推0噓0
679推1噓0
680推34噓0
681推2噓0
682推3噓0
683推0噓0
684推53噓3
685推9噓0
686推2噓0
687推1噓0
688推3噓0
689推6噓0
690推3噓0
691推6噓0
692推12噓0
693推13噓0
694推1噓0
695推4噓0
696推4噓0
697推1噓0
698推7噓0
699推7噓0
700推0噓0
701推13噓0
702推9噓0
703推0噓1
704推4噓0
705推2噓13
706推10噓0
707推3噓0
708推15噓0
709推2噓0
710推14噓0
711推8噓0
712推9噓0
713推3噓0
714推1噓18
715推1噓0
716推132噓39
717推3噓0
718推2噓0
719推12噓0
720推1噓0
721推6噓0
722推0噓0
723推3噓0
724推16噓0
725推28噓7
726推4噓0
727推3噓0
728推13噓0
729推1噓0
730推12噓0
731推4噓0
732推12噓0
733推1噓0
734推36噓2
735推5噓0
736推3噓1
737推45噓2
738推12噓0
739推122噓4
740推4噓0
741推18噓0
742推1噓0
743推46噓4
744推16噓1
745推20噓0
746推18噓0
747推12噓0
748推40噓2
749推5噓0
750推9噓2
751推3噓0
752推1噓0
753推18噓0
754推2噓8
755推6噓1
756推15噓0
757推0噓0
758推0噓0
759推4噓0
760推3噓0
761推5噓0
762推32噓2
763推1噓1
764推157噓47
765推69噓12
766推6噓0
767推11噓0
768推24噓1
769推22噓0
770推5噓0
771推14噓0
772推4噓1
773推3噓0
774推16噓0
775推0噓0
776推1噓0
777推5噓0
778推6噓0
779推27噓0
780推3噓0
781推8噓0
782推2噓9
783推9噓0
784推45噓1
785推51噓5
786推30噓7
787推0噓0
788推9噓0
789推1噓0
790推5噓0
791推2噓5
792推217噓17
793推62噓0
794推13噓0
795推0噓0
796推0噓0
797推56噓0
798推0噓0
799推1噓0
800推8噓0
801推174噓1
802推35噓0
803推7噓16
804推1噓0
805推13噓0
806推7噓3
807推7噓0
808推65噓2
809推2噓0
810推9噓0
811推5噓0
812推9噓1
813推7噓0
814推25噓0
815推8噓0
816推7噓2
817推7噓0
818推18噓1
819推2噓0
820推7噓0
821推2噓0
822推9噓0
823推10噓0
824推3噓0
825推5噓0
826推23噓121
827推7噓3
828推7噓0
829推52噓0
830推6噓0
831推22噓1
832推3噓0
833推5噓0
834推6噓17
835推9噓7
836推5噓0
837推4噓0
838推49噓0
839推4噓0
840推3噓0
841推29噓0
842推14噓0
843推1噓0
844推58噓0
845推46噓2
846推1噓0
847推4噓0
848推15噓0
849推7噓0
850推8噓0
851推2噓8
852推14噓1
853推2噓0
854推3噓5
855推2噓0
856推5噓0
857推1噓0
858推7噓0
859推12噓0
860推2噓1
861推7噓0
862推9噓120
863推19噓43
864推19噓0
865推4噓8
866推9噓34
867推6噓6
868推3噓0
869推10噓1
870推8噓0
871推2噓3
872推12噓0
873推4噓0
874推3噓1
875推1噓0
876推0噓0
877推22噓0
878推5噓10
879推13噓0
880推4噓1
881推14噓0
882推10噓0
883推5噓10
884推24噓42
885推3噓2
886推3噓1
887推3噓9
888推15噓0
889推5噓5
890推4噓5
891推57噓1
892推0噓0
893推0噓0
894推3噓7
895推4噓0
896推4噓0
897推11噓3
898推21噓0
899推6噓7
900推37噓0
901推35噓2
902推3噓0
903推18噓3
904推39噓0
905推25噓20
906推44噓1
907推16噓0
908推8噓0
909推1噓3
910推25噓3
911推64噓29
912推2噓0
913推0噓0
914推7噓0
915推28噓0
916推24噓0
917推6噓2
918推8噓0
919推5噓0
920推24噓0
921推29噓1
922推8噓0
923推23噓1
924推13噓0
925推72噓0
926推1噓0
927推23噓4
928推1噓0
929推1噓0
930推13噓0
931推19噓0
932推19噓0
933推18噓1
934推7噓0
935推4噓0
936推5噓0
937推5噓0
938推9噓0
939推11噓0
940推9噓0
941推4噓0
942推23噓0
943推5噓0
944推10噓0
945推8噓0
946推79噓0
947推36噓0
948推21噓0
949推14噓1
950推6噓0
951推6噓0
952推3噓0
953推11噓0
954推5噓25
955推7噓0
956推30噓3
957推16噓1
958推28噓0
959推5噓0
960推18噓0
961推9噓0
962推18噓0
963推9噓2
964推5噓0
965推4噓0
966推2噓0
967推127噓7
968推7噓1
969推5噓0
970推1噓0
971推5噓0
972推7噓0
973推2噓1
974推3噓0
975推50噓0
976推9噓0
977推9噓0
978推18噓0
979推16噓0
980推12噓15
981推0噓0
982推8噓0
983推13噓0
984推6噓0
985推16噓0
986推4噓0
987推18噓2
988推1噓0
989推3噓16
990推4噓0
991推24噓1
992推43噓1
993推2噓15
994推5噓14
995推8噓0
996推28噓2
997推3噓0
998推5噓1
999推44噓0
1000推1噓0
1001推5噓0
1002推50噓0
1003推16噓1
1004推1噓0
1005推104噓5
1006推6噓0
1007推2噓0
1008推11噓0
1009推7噓0
1010推1噓0
1011推1噓0
1012推27噓0
1013推8噓6
1014推1噓0
1015推20噓0
1016推17噓0
1017推3噓0
1018推15噓0
1019推9噓0
1020推13噓0
1021推1噓1
1022推42噓5
1023推2噓0
1024推13噓1
1025推34噓0
1026推10噓0
1027推27噓1
1028推7噓0
1029推5噓0
1030推10噓0
1031推17噓0
1032推9噓7
1033推20噓1
1034推7噓0
1035推9噓0
1036推8噓0
1037推12噓0
1038推1噓0
1039推11噓15
1040推10噓1
1041推8噓0
1042推12噓0
1043推20噓0
1044推10噓2
1045推4噓0
1046推9噓1
1047推3噓0
1048推8噓0
1049推17噓0
1050推1噓0
1051推11噓0
1052推15噓0
1053推3噓0
1054推2噓0
1055推6噓0
1056推144噓10
1057推12噓0
1058推15噓1
1059推4噓0
1060推12噓0
1061推1噓0
1062推8噓0
1063推12噓0
1064推43噓2
1065推32噓2
1066推19噓0
1067推14噓19
1068推6噓1
1069推25噓1
1070推2噓0
1071推3噓0
1072推0噓0
1073推5噓5
1074推8噓0
1075推7噓0
1076推11噓0
1077推4噓0
1078推1噓0
1079推36噓15
1080推2噓0
1081推13噓0
1082推0噓1
1083推13噓20
1084推8噓0
1085推1噓0
1086推17噓1
1087推31噓0
1088推4噓2
1089推8噓0
1090推9噓0
1091推11噓2
1092推8噓0
1093推0噓0
1094推16噓0
1095推0噓0
1096推241噓3
1097推4噓0
1098推13噓0
1099推2噓0
1100推8噓0
1101推26噓6
1102推11噓0
1103推29噓2
1104推2噓0
1105推30噓0
1106推0噓0
1107推0噓0
1108推6噓0
1109推4噓0
1110推5噓0
1111推6噓0
1112推9噓0
1113推2噓0
1114推0噓0
1115推7噓0
1116推5噓0
1117推3噓0
1118推6噓0
1119推17噓0
1120推49噓0
1121推2噓4
1122推4噓0
1123推1噓0
1124推8噓0
1125推160噓0
1126推17噓1
1127推41噓0
1128推4噓0
1129推2噓0
1130推10噓0
1131推91噓1
1132推0噓4
1133推2噓1
1134推2噓1
1135推0噓0
1136推1噓0
1137推0噓0
1138推8噓0
1139推10噓0
1140推3噓0
1141推13噓0
1142推3噓0
1143推0噓0
1144推7噓0
1145推16噓1
1146推1噓0
1147推5噓0
1148推38噓3
1149推10噓0
1150推5噓0
1151推41噓0
1152推46噓1
1153推11噓0
1154推5噓0
1155推8噓0
1156推112噓1
1157推25噓0
1158推9噓0
1159推7噓0
1160推440噓2
1161推6噓23
1162推13噓33
1163推7噓0
1164推12噓0
1165推1噓0
1166推13噓0
1167推4噓1
1168推3噓0
1169推2噓0
1170推2噓0
1171推11噓0
1172推5噓0
1173推3噓0
1174推8噓0
1175推170噓0
1176推15噓2
1177推2噓0
1178推11噓0
1179推1噓0
1180推5噓0
1181推1噓0
1182推60噓2
1183推55噓0
1184推22噓2
1185推27噓0
1186推2噓0
1187推39噓1
1188推20噓1
1189推13噓3
1190推7噓18
1191推8噓0
1192推1噓0
1193推5噓0
1194推5噓0
1195推1噓0
1196推2噓0
1197推2噓0
1198推3噓0
1199推1噓0
1200推17噓0
1201推33噓120
1202推4噓0
1203推2噓0
1204推9噓0
1205推14噓2
1206推8噓0
1207推11噓0
1208推4噓0
1209推8噓0
1210推79噓0
1211推2噓0
1212推48噓0
1213推0噓0
1214推1噓0
1215推12噓0
1216推3噓0
1217推0噓0
1218推47噓0
1219推6噓0
1220推2噓0
1221推13噓0
1222推88噓0
1223推0噓0
1224推5噓0
1225推0噓0
1226推0噓0
1227推24噓28
1228推3噓0
1229推14噓1
1230推0噓0
1231推13噓0
1232推5噓0
1233推3噓0
1234推12噓2
1235推4噓0
1236推17噓0
1237推29噓1
1238推0噓0
1239推1噓0
1240推11噓0
1241推108噓83
1242推4噓0
1243推17噓2
1244推44噓2
1245推17噓2
1246推19噓0
1247推3噓0
1248推59噓1
1249推44噓1
1250推2噓0
1251推20噓0
1252推8噓3
1253推17噓1
1254推9噓0
1255推29噓0
1256推5噓0
1257推5噓0
1258推23噓2
1259推12噓0
1260推12噓0
1261推11噓4
1262推7噓0
1263推1噓0
1264推12噓0
1265推96噓0
1266推10噓0
1267推20噓0
1268推18噓4
1269推14噓3
1270推26噓1
1271推3噓0
1272推0噓0
1273推40噓3
1274推13噓0
1275推9噓0
1276推24噓13
1277推4噓4
1278推2噓0
1279推2噓1
1280推2噓0
1281推13噓0
1282推7噓0
1283推6噓0
1284推18噓0
1285推20噓0
1286推3噓0
1287推16噓0
1288推7噓0
1289推1噓0
1290推14噓0
1291推16噓0
1292推15噓0
1293推8噓0
1294推93噓0
1295推23噓0
1296推2噓0
1297推12噓0
1298推6噓0
1299推2噓1
1300推5噓1
1301推10噓5
1302推17噓2
1303推53噓1
1304推0噓0
1305推3噓0
1306推3噓0
1307推2噓0
1308推2噓0
1309推18噓0
1310推10噓0
1311推11噓0
1312推18噓0
1313推2噓0
1314推5噓0
1315推11噓1
1316推2噓0
1317推8噓1
1318推12噓0
1319推54噓1
1320推0噓0
1321推17噓0
1322推13噓1
1323推9噓0
1324推5噓0
1325推77噓0
1326推16噓0
1327推0噓40
1328推2噓1
1329推0噓0
1330推14噓1
1331推23噓0
1332推21噓0
1333推1噓0
1334推9噓0
1335推5噓0
1336推1噓0
1337推14噓0
1338推2噓0
1339推5噓2
1340推7噓1
1341推5噓0
1342推2噓0
1343推4噓0
1344推1噓0
1345推6噓1
1346推7噓0
1347推0噓0
1348推1噓0
1349推4噓10
1350推9噓0
1351推1噓0
1352推8噓0
1353推67噓3
1354推6噓0
1355推2噓0
1356推53噓0
1357推1噓0
1358推5噓31
1359推7噓0
1360推10噓0
1361推3噓0
1362推383噓65
1363推8噓1
1364推39噓0
1365推2噓0
1366推79噓5
1367推11噓1
1368推15噓0
1369推37噓0
1370推2噓0
1371推0噓0
1372推60噓0
1373推24噓0
1374推12噓15
1375推0噓0
1376推0噓0
1377推279噓5
1378推5噓0
1379推6噓0
1380推1噓0
1381推4噓0
1382推7噓0
1383推6噓0
1384推5噓1
1385推6噓0
1386推2噓0
1387推3噓1
1388推6噓0
1389推23噓0
1390推23噓0
1391推2噓31
1392推27噓1
1393推3噓0
1394推2噓3
1395推46噓1
1396推20噓0
1397推8噓0
1398推11噓2
1399推35噓1
1400推6噓0
1401推7噓0
1402推10噓0
1403推11噓0
1404推3噓0
1405推8噓0
1406推1噓0
1407推2噓0
1408推7噓0
1409推9噓0
1410推24噓6
1411推6噓0
1412推9噓2
1413推14噓0
1414推6噓0
1415推5噓0
1416推224噓22
1417推5噓0
1418推4噓1
1419推2噓0
1420推11噓0
1421推2噓0
1422推2噓0
1423推3噓0
1424推4噓1
1425推7噓0
1426推6噓0
1427推1噓0
1428推1噓0
1429推3噓0
1430推13噓3
1431推2噓0
1432推7噓0
1433推2噓0
1434推19噓0
1435推7噓0
1436推25噓6
1437推69噓0
1438推20噓2
1439推82噓6
1440推9噓0
1441推27噓0
1442推20噓0
1443推32噓9
1444推6噓1
1445推2噓0
1446推4噓0
1447推25噓4
1448推6噓0
1449推7噓0
1450推1噓0
1451推6噓0
1452推78噓0
1453推23噓4
1454推9噓0
1455推4噓0
1456推14噓0
1457推42噓0
1458推16噓0
1459推9噓0
1460推6噓2
1461推0噓2
1462推16噓0
1463推3噓0
1464推15噓0
1465推5噓0
1466推7噓0
1467推15噓0
1468推0噓0
1469推8噓0
1470推12噓0
1471推31噓1
1472推9噓0
1473推27噓0
1474推0噓0
1475推13噓0
1476推28噓0
1477推8噓0
1478推41噓0
1479推1噓0
1480推5噓0
1481推12噓1
1482推33噓10
1483推3噓0
1484推6噓0
1485推71噓0
1486推3噓0
1487推9噓0
1488推8噓0
1489推4噓2
1490推15噓0
1491推1噓0
1492推7噓0
1493推7噓1
1494推2噓1
1495推2噓0
1496推6噓0
1497推13噓0
1498推18噓0
1499推11噓0
1500推3噓0
1501推5噓0
1502推11噓0
1503推8噓0
1504推22噓1
1505推10噓0
1506推1噓0
1507推3噓0
1508推13噓0
1509推8噓0
1510推9噓0
1511推3噓0
1512推1噓0
1513推4噓0
1514推5噓0
1515推11噓0
1516推3噓0
1517推1噓0
1518推43噓0
1519推13噓0
1520推7噓1
1521推214噓51
1522推5噓0
1523推9噓0
1524推23噓24
1525推2噓0
1526推0噓0
1527推2噓0
1528推2噓0
1529推28噓1
1530推0噓0
1531推1噓0
1532推0噓0
1533推3噓0
1534推118噓25
1535推9噓0
1536推4噓0
1537推3噓8
1538推15噓2
1539推2噓0
1540推0噓0
1541推2噓0
1542推1噓0
1543推18噓2
1544推17噓0
1545推2噓0
1546推3噓0
1547推7噓0
1548推1噓0
1549推71噓0
1550推3噓0
1551推0噓0
1552推0噓0
1553推8噓0
1554推16噓0
1555推13噓0
1556推179噓0
1557推4噓0
1558推3噓0
1559推4噓0
1560推1噓0
1561推5噓0
1562推28噓198
1563推231噓7
1564推2噓0
1565推58噓4
1566推10噓0
1567推4噓0
1568推16噓0
1569推5噓0
1570推20噓0
1571推127噓0
1572推8噓0
1573推5噓0
1574推10噓0
1575推27噓0
1576推5噓0
1577推9噓1
1578推10噓1
1579推4噓0
1580推123噓1
1581推11噓0
1582推17噓1
1583推37噓2
1584推15噓2
1585推3噓0
1586推12噓8
1587推3噓0
1588推11噓5
1589推1噓1
1590推1噓1
1591推7噓10
1592推36噓7
1593推4噓0
1594推3噓1
1595推34噓0
1596推12噓0
1597推0噓0
1598推3噓9
1599推18噓0
1600推4噓0
1601推11噓1
1602推3噓0
1603推2噓0
1604推20噓0
1605推25噓0
1606推0噓0
1607推8噓0
1608推27噓0
1609推42噓0
1610推7噓0
1611推4噓0
1612推13噓0
1613推8噓1
1614推4噓0
1615推2噓0
1616推22噓2
1617推13噓6
1618推9噓0
1619推0噓0
1620推29噓0
1621推0噓0
1622推7噓0
1623推16噓3
1624推11噓0
1625推34噓0
1626推31噓0
1627推12噓1
1628推4噓0
1629推3噓0
1630推16噓0
1631推10噓0
1632推19噓0
1633推4噓5
1634推18噓0
1635推4噓0
1636推7噓0
1637推1噓0
1638推26噓0
1639推1噓0
1640推5噓0
1641推14噓0
1642推4噓0
1643推0噓0
1644推3噓0
1645推14噓2
1646推5噓17
1647推1噓0
1648推17噓0
1649推2噓0
1650推22噓1
1651推21噓0
1652推15噓0
1653推8噓1
1654推3噓0
1655推1噓0
1656推36噓0
1657推6噓0
1658推288噓22
1659推6噓0
1660推4噓1
1661推77噓8
1662推5噓0
1663推2噓0
1664推63噓0
1665推1噓1
1666推0噓0
1667推2噓0
1668推21噓0
1669推22噓0
1670推2噓9
1671推5噓0
1672推2噓1
1673推13噓0
1674推4噓24
1675推6噓1
1676推15噓6
1677推126噓1
1678推3噓0
1679推0噓0
1680推2噓1
1681推9噓0
1682推2噓0
1683推264噓5
1684推148噓0
1685推234噓5
1686推105噓2
1687推80噓1
1688推300噓4
1689推126噓0
1690推181噓2
1691推163噓2
1692推75噓4
1693推4噓0
1694推83噓2
1695推1噓0
1696推12噓1
1697推7噓2
1698推24噓0
1699推68噓0
1700推2噓2
1701推7噓0
1702推50噓11
1703推2噓0
1704推8噓0
1705推0噓0
1706推15噓1
1707推6噓1
1708推1噓1
1709推46噓6
1710推36噓0
1711推11噓0
1712推8噓0
1713推12噓0
1714推2噓0
1715推14噓0
1716推5噓0
1717推15噓0
1718推2噓0
1719推16噓0
1720推62噓7
1721推66噓4
1722推39噓9
1723推4噓0
1724推205噓1
1725推15噓0
1726推14噓0
1727推2噓0
1728推14噓0
1729推16噓0
1730推3噓0
1731推72噓1
1732推26噓1
1733推2噓0
1734推8噓0
1735推8噓0
1736推21噓2
1737推30噓1
1738推64噓0
1739推10噓0
1740推14噓1
1741推4噓0
1742推18噓2
1743推10噓0
1744推12噓1
1745推143噓3
1746推2噓0
1747推6噓1
1748推0噓0
1749推12噓0
1750推3噓0
1751推5噓0
1752推12噓3
1753推50噓8
1754推19噓1
1755推28噓0
1756推20噓1
1757推15噓0
1758推4噓0
1759推5噓0
1760推12噓0
1761推28噓3
1762推26噓1
1763推57噓5
1764推5噓0
1765推34噓34
1766推3噓0
1767推1噓0
1768推3噓0
1769推96噓2
1770推13噓0
1771推3噓1
1772推10噓1
1773推8噓2
1774推20噓0
1775推24噓0
1776推32噓16
1777推4噓0
1778推10噓0
1779推0噓0
1780推1噓0
1781推6噓0
1782推87噓3
1783推51噓3
1784推28噓2
1785推13噓0
1786推48噓4
1787推11噓0
1788推4噓0
1789推19噓0
1790推5噓1
1791推17噓0
1792推55噓49
1793推10噓0
1794推4噓1
1795推5噓0
1796推13噓0
1797推20噓0
1798推14噓0
1799推9噓0
